<?xml version="1.0" encoding="utf-8"?>
<!-- Generator: Adobe Illustrator 18.0.0, SVG Export Plug-In . SVG Version: 6.00 Build 0)  -->
<!DOCTYPE svg PUBLIC "-//W3C//DTD SVG 1.1//EN" "http://www.w3.org/Graphics/SVG/1.1/DTD/svg11.dtd">
<svg version="1.1" id="Capa_1" xmlns="http://www.w3.org/2000/svg" xmlns:xlink="http://www.w3.org/1999/xlink" x="0px" y="0px"
	 viewBox="53.9 0 683.9 612" enable-background="new 53.9 0 683.9 612" xml:space="preserve">
<g>
	<g>
		<rect x="53.9" fill="#0F69B4" width="280.2" height="612"/>
		<rect x="334.1" fill="#EB3C46" width="403.7" height="612"/>
		<g>
			<path fill="#FFFFFF" d="M216.9,120.8v9.6C218.6,126.2,218,122.9,216.9,120.8z"/>
			<path fill="#FFFFFF" d="M235.9,68.9c0.3,0,0-1.4,1.1-1.4s2.7,0.8,3,1.9c0.3,1.1-0.8,4.1,3,4.7c0,0,0,0.5,0,1.4l0,0
				c0,0.8-0.3,1.4-0.5,1.9c0.3,0,0.5,0,0.8,0c5.2,0.3,8.2-0.3,9.6-1.6c0,0,0.8-0.8,1.4-1.9c1.4-2.7,1.6-5.2,0.8-7.1l0,0v-0.3
				c0-0.3-0.3-0.5-0.3-0.8c-1.1-2.2-4.1-4.7-8-6c-0.3,0-0.5,0-0.8,0l0,0c0,0,0,0,0.3,0l0,0l0,0h0.8c2.7,0.3,7.4,3,8.5,6
				c0.8-0.5,1.6-2.2,1.9-3.6l0,0c0-0.3,0-1.9,0.5-3.6c0.3-0.5,0-1.1-0.3-1.1c-0.3-0.3-0.8,0-1.1,0.5c-0.8,1.4-2.2,0.5-1.6-0.8
				c0.3-0.5,0-1.1-0.3-1.1c-0.3-0.3-0.8,0-1.1,0.5c-0.5,1.4-2.2,0.5-1.6-0.8c0.3-0.5,0-1.1-0.3-1.1c-0.3-0.3-0.8,0-1.1,0.5
				c-0.5,1.4-2.2,0.5-1.6-0.8c0.3-0.5,0-1.1-0.3-1.1c-0.3-0.3-0.8,0-1.1,0.5c-0.5,1.1-0.8,1.6-1.4,2.2c3,0.5,6.3,2.2,8.5,4.4
				c0,0,0.8,0.8,0.8,1.1l0,0l0,0c0,0.3,0,0.3,0,0.3l0,0c-0.3-0.3-0.5-0.8-1.1-1.1c-3.6-3-6.6-4.1-9.1-4.4c-1.6,0.3-1.1,2.2-1.1,3.3
				c-2.7-0.5-4.9,1.4-5.2,3.3c0,0.8,0.3,1.4,0.5,2.2c0,0,0,0,0,0.3c0,0-0.5-0.3-0.8-0.8c-0.3-0.5-0.3-0.8-0.3-1.4
				c-2.2,0-4.4,1.4-4.1,3.6C233.7,67.2,235.3,68.9,235.9,68.9z M243.8,65.9c0.5-0.8,0.8,2.5,3.3,1.4C245.2,69.2,243,67.2,243.8,65.9
				z M243.5,64.2c0.8-0.5,1.6-2.5,3-1.4c0.5,0.3,1.4,1.1,1.9,1.6c0.8,0.5,1.6,1.1,1.9,1.6c0.5,0.8-0.8,2.7-1.9,1.1
				c-0.8-1.4-1.9-3.6-3.8-2.7c-1.4,0.8-2.5,1.9-3,0.8C241.9,64.5,243,64.5,243.5,64.2z M237,64.5c-0.3,0.8-1.6,0.8-1.9,1.9
				C234.2,65.6,236.1,63.4,237,64.5z"/>
			<path fill="#FFFFFF" d="M298.4,166.3c-1.6-1.9-5.8-1.1-5.8-1.1c2.2-6.9-3.8-8.5-3.8-8.5c-2.2-0.5-3.6-0.3-4.7,0.5l0,0l0,0
				c-0.3,0-0.3,0.3-0.5,0.3c-0.5,0.5-0.8,1.4-0.8,2.2c0,1.9,1.4,3.3,3.3,3.3c0.8,0,1.4-0.3,1.9-0.5c0.5-0.5,1.1-1.1,1.4-1.9
				c0.8,0.5,1.1,1.6,1.1,1.6c1.9,5.8-4.7,7.7-4.7,7.7c-14.3,4.4-23.1-3-23.1-3l2.5-1.4c0.8-0.3,1.6-0.5,2.2-0.5c0,0,0,0.3,0,0.5
				c0,1.6,1.4,2.7,2.7,2.7c1.6,0,2.7-1.4,2.7-2.7c0-0.5-0.3-1.1-0.3-1.4l0,0c0-0.3-0.3-0.3-0.3-0.3c-1.6-2.5-7.4-0.8-7.4-0.8
				c1.9-4.7,0.3-8.2,0.3-8.2c-1.1-1.6-0.8-2.5-0.8-2.5c0-1.6-0.3-1.9-0.3-1.9c-0.8-1.1-2.5-0.5-2.5-0.5c-2.2,0.5-2.7-0.5-2.7-0.5
				c-1.9-1.4-2.7-0.5-2.7-0.5c-0.8,0.5,0.3,1.9,0.3,1.9c-1.9,0-2.7,2.7-2.7,2.7c-0.8,4.4,2.7,4.7,2.7,4.7c2.5,0,2.5-1.9,2.5-1.9
				c0.3-1.9-2.5-2.2-2.5-2.2c0.5-1.1,1.4-1.1,1.4-1.1c3-0.8,4.4,2.7,4.4,2.7c2.5,3.8-0.8,7.4-0.8,7.4c-0.5,0.5-1.1,0.3-1.1,0.3
				c-1.6-0.8-4.1-2.5-4.1-2.5s-0.3,0-0.3-0.3h-1.1c-1.1,0-2.2,0.3-3,0.5c1.1,1.1,4.9,4.4,4.9,4.4c-2.7,2.2-4.4,0.5-4.4,0.5
				c-1.4-1.4-1.1-3.8-0.8-4.9h-0.3c-1.4,0.5-2.7,1.1-3.8,1.6c1.4,2.2,3.6,5.8,3.6,5.8c-3.3,1.1-3.8-3.3-4.1-5.5
				c-0.5,0.3-1.4,0.5-1.9,0.8c0.3,0.5,0.3,0.8,0.3,0.8c0.3,2.5,2.5,5.2,2.5,5.2c-2.2-0.5-3.8,1.1-3.8,1.1c-1.4,1.4-1.4,3-1.4,3.6
				c0,0.8,0.8,1.6,1.6,1.6c0.8,0,1.6-0.8,1.6-1.6s-0.8-1.6-1.6-1.6c0.8-1.9,2.5-0.3,2.5-0.3c2.5,2.2-1.4,4.9-1.4,4.9
				c-2.7,1.9-5.5-1.6-5.5-1.6c3-5.2,3.6-9.1,3.3-11.3c-1.1,0.3-1.9,0.8-3,1.1c1.4,4.7-1.9,7.4-1.9,7.4c-0.8-0.5-1.1-3.3-1.1-3.3
				c-0.3-1.1-0.5-2.2-1.1-3c-0.8,0.3-1.6,0.5-2.7,0.8c1.1,3,1.4,7.4,1.4,7.4c-0.5,0.5-2.2,0.8-2.2,0.8c-2.2,0.3-1.1-1.1-1.1-1.1
				c1.1-1.1,0.8-1.6,0.8-1.6c-0.8-1.6-3.3,0-3.3,0c-3.3,1.9-2.5,3.8-2.5,3.8c0.5,1.1,3.8,2.5,3.8,2.5c-1.9,1.4-5.5,0.8-5.8,0.8
				c0-1.1-0.8-1.6-1.6-1.9h-0.3c-1.4,0-1.9,0.3-2.2,0.8c-0.3,0.3-0.3,0.5-0.3,0.8l-2.2-0.5c-1.4-0.3-2.2-4.4-2.7-8
				c-0.5,0-1.1,0.3-1.6,0.3c0.5,3.8,1.4,7.4,1.4,7.4c-0.8,0-3.8-2.2-3.8-2.2c-3.8-2.2-6.3-1.6-6.6-1.6c-1.9,0.3-3.3,1.9-3.3,4.1
				s1.9,4.1,4.1,4.1s4.1-1.6,4.1-4.1c1.4,0.8,2.7,1.4,2.7,1.4c3.6,2.5,7.1,2.7,8,2.7c0.3,1.4,1.4,2.5,3,2.5c1.1,0,2.2-0.5,2.5-1.6
				c8-0.3,10.7-3.8,10.7-3.8c0.8-1.1,1.1-0.5,1.1-0.5c2.7,4.1,8.5,1.6,8.5,1.6c1.1-0.5,1.4,0.3,1.4,0.3c1.1,1.9,2.7,0.8,2.7,0.8
				c2.2-1.1,0.8-2.5,0.8-2.5c-0.8-0.8,0.3-0.8,0.3-0.8c2.7,0.3,3-1.1,3-1.1c0.5-1.1-1.4-2.2-1.4-2.2c-0.5-0.5,0.5-1.1,0.5-1.1
				c1.6-0.8,1.4-1.9,1.4-1.9c1.9,0,1.9-0.8,1.9-0.8c0-0.8-2.5-0.8-2.5-0.8c-1.9-0.3-1.6-1.1-1.6-1.1c2.7,0,7.1-1.4,7.1-1.4
				c6.3,5.2,15.6,6.3,15.6,6.3c0.3,0.8-0.3,2.2-0.3,2.5c0,0,0,0-0.3,0c-0.8,0-1.4,0.5-1.4,1.4c0,0.8,0.5,1.4,1.4,1.4
				c0.3,0,0.5,0,0.5,0c3-0.8,3.3-5.2,3.3-5.2c8.5,0.8,14.5-5.8,14.5-5.8c0.8-0.8,1.4-0.5,1.4-0.3l0,0c0.5,0.5,1.1,0.8,1.9,0.8
				s1.6-0.5,1.9-1.1c0.3-0.5,0.3-1.1,0.5-1.4l0,0l0,0C299,166.9,298.4,166.3,298.4,166.3z"/>
			<path fill="#FFFFFF" d="M195.2,177.3c0.8-0.3,1.1-1.4,1.1-1.4c0.3-2.5-1.6-3.3-1.6-3.6c-1.1,0-1.9,0-3,0l0,0l0,0
				c-1.1,0-1.9,0-3,0c0,0-1.6,1.1-1.6,3.6c0,0,0.3,0.8,1.1,1.4c0,0-2.2,0.8-2.2,2.5c0,0-0.3,1.1,1.6,2.7c0,0,1.4,1.6,1.9,2.7
				c0,0,0,1.6,2.5,1.6c2.2,0,2.5-1.6,2.5-1.6c0.3-1.1,1.9-2.7,1.9-2.7c1.9-1.6,1.6-2.7,1.6-2.7C197.4,178.1,195.2,177.3,195.2,177.3
				z"/>
			<polygon fill="#FFFFFF" points="211.4,167.7 212.5,167.7 211.7,166.3 			"/>
			<polygon fill="#FFFFFF" points="173.6,168 174.7,168 174.1,166.6 			"/>
			<path fill="#FFFFFF" d="M169.2,164.7C168.9,164.7,168.9,164.7,169.2,164.7l-0.5,1.6c0.3,0,0.5,0,0.8,0c0.3,0,0.3,0,0.3-0.3
				c0,0,0.3-0.3,0.3-0.5c0-0.3,0-0.5-0.3-0.8C169.7,164.9,169.5,164.7,169.2,164.7z"/>
			<path fill="#FFFFFF" d="M185.4,166c-0.3,0-0.5,0-0.8,0.5c-0.3,0.3-0.3,0.8-0.3,1.4c0,0.8,0,1.1,0.3,1.6c0.3,0.3,0.5,0.5,0.8,0.5
				c0.3,0,0.8,0,0.8-0.3c0.3-0.3,0.3-0.8,0.3-1.6c0-0.5,0-1.1-0.3-1.4C186.2,166.3,185.9,166,185.4,166z"/>
			<path fill="#FFFFFF" d="M199.6,166c-0.3,0-0.5,0.3-0.8,0.5c-0.3,0.3-0.3,0.8-0.3,1.4c0,0.8,0.3,1.1,0.3,1.6
				c0.3,0.3,0.5,0.5,0.8,0.5c0.3,0,0.5-0.3,0.8-0.5c0.3-0.3,0.3-0.8,0.3-1.6c0-0.5-0.3-1.1-0.3-1.4C200.2,166,199.9,166,199.6,166z"
				/>
			<polygon fill="#FFFFFF" points="160.7,166 161.8,166 161.5,164.7 			"/>
			<path fill="#FFFFFF" d="M139.3,157.5l-0.8,1.6h0.3c0.3,0,0.5,0,0.8,0c0.3,0,0.3-0.3,0.3-0.5s0-0.5,0-0.5c0-0.3,0-0.3-0.3-0.3
				C139.5,157.5,139.5,157.5,139.3,157.5z"/>
			<path fill="#FFFFFF" d="M143.7,159.4c-0.3,0.3-0.5,0.5-0.8,1.4c-0.3,0.8-0.3,1.1-0.3,1.6c0,0.3,0.3,0.5,0.8,0.8
				c0.3,0,0.8,0,1.1-0.3c0.3-0.3,0.5-0.5,0.8-1.4c0.3-0.5,0.3-1.1,0.3-1.4c0-0.3-0.3-0.5-0.8-0.8
				C144.2,159.2,143.9,159.2,143.7,159.4z"/>
			<path fill="#FFFFFF" d="M150,160.8C149.7,160.8,149.7,160.8,150,160.8l-0.5,1.6c0.3,0,0.5,0.3,0.8,0c0.3,0,0.3,0,0.3-0.3
				c0,0,0.3-0.3,0.3-0.5s0-0.5,0-0.8C150.5,161.1,150.2,160.8,150,160.8z"/>
			<path fill="#FFFFFF" d="M234.8,160.8c-0.3,0-0.5,0-0.8,0c0,0,0,0-0.3,0l0.5,1.6c0.3,0,0.5-0.3,0.8-0.3l0.3-0.3c0-0.3,0-0.3,0-0.5
				C235,161.1,234.8,161.1,234.8,160.8z"/>
			<polygon fill="#FFFFFF" points="244.1,160.3 245.2,160 244.1,158.9 			"/>
			<path fill="#FFFFFF" d="M246.8,154c-0.5,0-1.1,0.3-1.1,0.3c-2.2,0.5-21.7,9.3-54.1,9.3s-52.1-8.8-54.1-9.3c0,0-0.5-0.3-1.1-0.3
				c-0.5,0-1.1,0.3-1.6,0.5l-6.6,5.2l0,0c1.9,0,4.1,1.1,4.1,1.1c17.3,7.7,37,10.7,59.3,11c22.2-0.3,42-3.3,59.3-11
				c0,0,2.2-1.1,4.1-1.1l0,0l-6.6-5.2C247.9,154.2,247.4,154,246.8,154z M185.4,164.1h1.4l-1.6,1.1h-0.3L185.4,164.1z M141.2,159.2
				c0,0.3-0.3,0.5-0.5,0.5c-0.3,0.3-0.5,0.3-0.8,0.3c-0.3,0-0.5,0-1.1-0.3h-0.3l-0.3,1.1c0,0.3,0,0.3,0,0.5l0.3,0.3l0,0v0.3
				l-2.5-0.8v-0.3l0,0c0.3,0,0.3,0,0.5,0l0.3-0.3l0.8-2.5c0-0.3,0-0.3,0-0.5l-0.3-0.3l0,0V157l1.6,0.5c0.5,0.3,0.8,0.3,1.1,0.5
				c0.3,0,0.5,0.3,0.5,0.5c0.3,0.3,0.3,0.3,0.3,0.5C141.2,158.6,141.2,158.9,141.2,159.2z M146.4,161.9c-0.3,0.5-0.5,1.1-1.1,1.4
				c-0.5,0.3-1.4,0.3-1.9,0c-0.5-0.3-0.8-0.5-1.4-0.8c-0.3-0.3-0.5-0.8-0.5-1.1c0-0.5,0-0.8,0-1.1c0-0.3,0.3-0.8,0.8-1.1
				c0.3-0.3,0.8-0.5,1.1-0.5c0.5,0,0.8,0,1.4,0c0.8,0.3,1.4,0.5,1.6,1.4C146.7,160.5,146.7,161.4,146.4,161.9z M151.1,164.1
				c0.3,0.5,0.3,0.8,0.3,0.8l0.3,0.3v0.3l-1.4-0.3c0-0.3-0.3-0.5-0.3-1.4c0-0.3-0.3-0.5-0.3-0.8c0,0,0-0.3-0.3-0.3
				c0,0-0.3,0-0.5-0.3l-0.3,1.1c0,0.3,0,0.3,0,0.5l0.3,0.3l0,0v0.3l-2.5-0.5v-0.3l0,0c0.3,0,0.3,0,0.5,0l0.3-0.3l0.8-2.7
				c0-0.3,0-0.3,0-0.5l-0.3-0.3l0,0v-0.3l1.9,0.5h0.3c0.3,0,0.8,0.3,0.8,0.3c0.3,0,0.3,0.3,0.5,0.3c0.3,0.3,0.3,0.3,0.3,0.5
				c0,0.3,0,0.5,0,0.5c-0.3,0.5-0.5,0.8-1.1,0.8C150.8,163.3,151.1,163.6,151.1,164.1z M158.7,167.1l-4.1-0.8V166l0,0
				c0.3,0,0.3,0,0.5,0c0,0,0-0.3,0.3-0.3l0.5-2.7c0-0.3,0-0.3,0-0.5c0,0-0.3-0.3-0.5-0.3l0,0v-0.3l2.5,0.5v0.3l0,0
				c-0.3,0-0.3,0-0.5,0l-0.3,0.3l-0.5,2.5c0,0.3,0,0.3,0,0.3s0,0,0.3,0.3c0,0,0.3,0,0.5,0.3c0.3,0,0.8,0,0.8,0
				c0.3-0.3,0.5-0.3,0.5-0.8h0.3L158.7,167.1z M163.7,168.2l-2.2-0.5v-0.3c0.3,0,0.3,0,0.3,0l0,0v-0.3l0,0v-0.3l-1.4-0.3v0.3
				c0,0.3-0.3,0.3-0.3,0.3v0.3h0.3v0.3l-1.4-0.3v-0.3c0.3,0,0.5-0.3,0.8-0.5l1.9-3.3h0.3l0.8,3.8c0,0.3,0.3,0.5,0.3,0.8l0.3,0.3
				H163.7z M171.6,169.3l-1.4-0.3c0-0.3-0.3-0.5-0.5-1.4c0-0.3-0.3-0.5-0.3-0.5l-0.3-0.3c0,0-0.3,0-0.5,0v1.1c0,0.3,0,0.3,0,0.5
				c0,0,0.3,0.3,0.5,0.3l0,0v0.3l-2.7-0.5v-0.3l0,0c0.3,0,0.3,0,0.5,0c0,0,0-0.3,0.3-0.5l0.3-2.7c0-0.3,0-0.3,0-0.5
				c0,0-0.3-0.3-0.5-0.3l0,0v-0.3l1.9,0.3h0.3c0.3,0,0.8,0,0.8,0.3c0.3,0,0.3,0,0.5,0.3c0.3,0,0.3,0.3,0.3,0.5c0,0.3,0,0.3,0,0.5
				c0,0.5-0.5,0.8-1.1,1.1c0.3,0,0.3,0.5,0.5,1.1c0.3,0.5,0.3,0.8,0.5,0.8l0.3,0.3L171.6,169.3z M176.6,169.9l-2.2-0.3v-0.3
				c0.3,0,0.3,0,0.3,0s0,0,0-0.3v-0.3l0,0v-0.3l-1.4-0.3v0.3c0,0.3,0,0.3,0,0.3v0.3h0.3v0.3l-1.6,0v-0.3c0.3,0,0.5-0.3,0.8-0.5
				l1.6-3.6h0.3l1.1,3.8c0,0.3,0.3,0.5,0.3,0.5s0.3,0,0.3,0.3L176.6,169.9z M181.5,165.8l-3,3.8h1.1c0.3,0,0.5,0,0.5,0l0.3-0.3
				c0,0,0.3-0.3,0.3-0.5h0.3l0.5,1.4l-4.1-0.3v-0.3l2.7-3.8h-0.8c-0.5,0-0.8,0-0.8,0c-0.3,0-0.3,0.3-0.5,0.5h-0.3l0.3-1.1l3.8,0.3
				L181.5,165.8z M187,169.9c-0.5,0.5-1.1,0.5-1.9,0.5c-0.5,0-1.1-0.3-1.4-0.3c-0.3-0.3-0.8-0.5-0.8-1.1c-0.3-0.3-0.3-0.8-0.3-1.1
				c0-0.5,0.3-0.8,0.3-1.1c0.3-0.3,0.5-0.5,1.1-0.8c0.3-0.3,0.8-0.3,1.4-0.3c0.8,0,1.4,0.3,1.9,0.8c0.5,0.5,0.5,1.1,0.5,1.6
				C187.8,168.8,187.6,169.3,187,169.9z M193.9,166.3h-0.3l-0.3,0.3c0,0,0,0.3,0,0.5v3.6h-0.5l-3-3.3v2.2c0,0.3,0,0.5,0.3,0.5
				c0,0,0.3,0.3,0.5,0.3v0.3h-1.6v-0.5c0.3,0,0.3,0,0.3,0l0.3-0.3c0,0,0-0.3,0-0.5v-2.5c0-0.5-0.3-0.8-0.5-0.8v-0.3h1.6l2.5,2.7
				v-1.6c0-0.5-0.3-0.8-0.5-0.8v-0.3h1.6v0.5H193.9z M201.6,169.6c-0.5,0.5-1.1,0.8-1.9,0.8c-0.5,0-1.1,0-1.4-0.3
				c-0.5-0.3-0.8-0.5-0.8-0.8c-0.3-0.3-0.3-0.8-0.3-1.1c0-0.3,0-0.8,0.3-1.1c0.3-0.3,0.5-0.8,0.8-0.8c0.3-0.3,0.8-0.3,1.4-0.3
				c0.8,0,1.4,0.3,1.9,0.5c0.5,0.5,0.8,1.1,0.8,1.6C202.4,168.5,202.1,169.1,201.6,169.6z M205.7,169.9v-0.3l0,0
				c0.3,0,0.3,0,0.5-0.3c0,0,0-0.3,0-0.5L206,166c0-0.3,0-0.3-0.3-0.5c0,0-0.3,0-0.5,0l0,0v-0.3l2.5-0.3v0.3l0,0
				c-0.3,0-0.3,0-0.5,0.3c0,0,0,0.3,0,0.5l0.3,2.7c0,0.3,0,0.3,0,0.3s0,0,0.3,0.3c0,0,0.3,0,0.5,0s0.8-0.3,0.8-0.3
				c0.3-0.3,0.3-0.5,0.3-0.8h0.3v1.6H205.7z M212.5,169.3v-0.3c0.3,0,0.3,0,0.3,0s0,0,0-0.3c0,0,0,0,0-0.3l0,0l-0.3-0.3l-1.4,0.3
				v0.3c0,0.3,0,0.3,0,0.3v0.3h0.3v0.3l-1.6,0.3v-0.3c0.3,0,0.5-0.3,0.5-0.8l1.1-3.8h0.3l1.9,3.3c0.3,0.3,0.3,0.5,0.5,0.5h0.3v0.3
				L212.5,169.3z M220.5,164.7c0-0.3-0.3-0.3-0.3-0.5l-0.3-0.3c0,0-0.3,0-0.5,0h-0.8l0.3,1.6h0.3c0.3,0,0.3,0,0.3-0.3
				c0,0,0-0.3,0-0.5h0.3l0.3,1.6h-0.3c0-0.3,0-0.3-0.3-0.5h-0.3h-0.3l0.3,1.4c0,0.3,0,0.3,0.3,0.5c0,0,0.3,0,0.5,0l0,0v0.3l-2.5,0.3
				V168l0,0c0.3,0,0.3,0,0.5-0.3c0,0,0-0.3,0-0.5l-0.5-2.7c0-0.3,0-0.3-0.3-0.3c0,0-0.3,0-0.5,0l0,0v-0.3l3.8-0.5l0.3,1.1
				L220.5,164.7z M226,163.6l0.3,1.6c0,0.3,0,0.5,0,0.8s0,0.5-0.3,0.5c0,0.3-0.3,0.5-0.5,0.5c0,0.3-0.3,0.3-0.8,0.3
				c-0.3,0-0.5,0-1.1,0c-0.3,0-0.5-0.3-0.8-0.3c-0.3-0.3-0.3-0.3-0.5-0.5c0-0.3-0.3-0.5-0.3-0.8l-0.3-1.9c0-0.3,0-0.3-0.3-0.5
				c0,0-0.3,0-0.5,0V163l2.5-0.5v0.3l0,0c-0.3,0-0.3,0-0.3,0.3c0,0,0,0.3,0,0.5l0.3,1.9c0,0.3,0.3,0.5,0.3,0.8
				c0,0.3,0.3,0.3,0.5,0.3s0.5,0.3,0.8,0c0.3,0,0.5-0.3,0.5-0.3c0.3-0.3,0.3-0.3,0.3-0.5s0-0.5,0-0.8l-0.3-1.6
				c0-0.5-0.3-0.5-0.8-0.5v-0.3l1.6-0.3v0.3c0,0-0.3,0-0.3,0.3l-0.3,0.3C226,163.3,226,163.3,226,163.6z M227.9,166.9v-0.3l0,0
				c0.3,0,0.3,0,0.3-0.3c0,0,0-0.3,0-0.5l-0.5-2.7c0-0.3,0-0.3-0.3-0.3c0,0-0.3,0-0.5,0l0,0v-0.3l3.8-0.8l0.3,1.1h-0.3
				c0-0.3-0.3-0.3-0.3-0.5l-0.3-0.3c0,0-0.3,0-0.5,0l-0.8,0.3l0.3,1.6h0.5c0.3,0,0.3,0,0.3-0.3c0,0,0-0.3,0-0.5h0.3l0.3,1.6h-0.3
				l0,0c0,0,0-0.3-0.3-0.3c0,0-0.3,0-0.5,0h-0.5l0.3,1.1c0,0.3,0,0.3,0.3,0.3c0,0,0,0,0.3,0c0,0,0.3,0,0.5,0c0.3,0,0.5-0.3,0.5-0.3
				s0.3-0.3,0.3-0.5c0-0.3,0-0.5,0-0.5h0.3l0.3,1.4L227.9,166.9z M236.7,164.7c-0.3,0-0.5-0.5-1.1-1.1c-0.3-0.3-0.5-0.5-0.5-0.5
				h-0.3c0,0-0.3,0-0.5,0l0.3,1.1c0,0.3,0,0.3,0.3,0.3c0,0,0.3,0,0.5,0l0,0v0.3l-2.5,0.5v-0.3l0,0c0.3,0,0.3,0,0.3-0.3
				c0,0,0-0.3,0-0.5l-0.8-2.7c0-0.3,0-0.3-0.3-0.3c0,0-0.3,0-0.5,0l0,0v-0.3l1.6-0.5h0.3c0.3,0,0.8-0.3,0.8-0.3c0.3,0,0.3,0,0.5,0
				c0.3,0,0.3,0.3,0.5,0.3c0.3,0,0.3,0.3,0.3,0.5c0.3,0.5,0,1.1-0.5,1.4c0.3,0,0.5,0.3,1.1,0.8c0.3,0.3,0.5,0.5,0.8,0.5s0.3,0,0.3,0
				v0.3L236.7,164.7z M238.9,163.8v-0.3l1.4-4.7l-0.8,0.3c-0.5,0.3-0.8,0.3-0.8,0.5c0,0.3-0.3,0.3-0.3,0.8h-0.3l-0.3-1.1l3.6-1.1
				v0.3l-1.4,4.7l1.1-0.3c0.3,0,0.5-0.3,0.5-0.3l0.3-0.3c0-0.3,0-0.3,0-0.5h0.3l0.3,1.4L238.9,163.8z M245.7,161.6l-0.3-0.3
				c0.3,0,0.3,0,0.3-0.3c0,0,0,0,0-0.3c0,0,0,0,0-0.3l0,0l-0.3-0.3l-1.4,0.5v0.3c0,0.3,0,0.3,0,0.3s0,0.3,0.3,0.3h0.3v0.3l-1.4,0.5
				v-0.3c0.3,0,0.3-0.5,0.5-1.1v-3.8l0.3-0.3l2.7,2.7c0.3,0.3,0.5,0.5,0.5,0.5c0.3,0,0.3,0,0.3,0v0.3L245.7,161.6z"/>
			<path fill="#FFFFFF" d="M168.4,88.6c-0.5,0.3-1.6,0.8-2.5,1.6h4.9C170,89.5,168.9,88.9,168.4,88.6z"/>
			<path fill="#FFFFFF" d="M201,90c-0.8-0.3-1.6-0.8-2.2-1.1h-0.3c-0.8-0.3-1.9-0.8-2.7-0.8h-10.2c-0.8,0.3-1.6,0.5-2.7,0.8h-0.3
				c-0.5,0.3-1.4,0.5-2.2,1.1h-0.3H201C201,90,201,90,201,90z"/>
			<path fill="#FFFFFF" d="M214.2,88.6L214.2,88.6L214.2,88.6c-0.5,0.3-1.4,0.8-2.2,1.4h4.4C215.6,89.5,214.7,89.2,214.2,88.6z"/>
			<path fill="#FFFFFF" d="M165.6,130.4v-10.7C164.8,121.6,163.4,126,165.6,130.4z"/>
			<path fill="#FFFFFF" d="M190.9,91.7h-26.6l0,0c0,0.3,0.3,0.5,0.3,0.8c0.3,0.3,0.5,0.5,1.1,1.4h24.7L190.9,91.7z"/>
			<path fill="#FFFFFF" d="M189.8,95.2h-23.3c0.3,0.5,0.8,1.4,1.1,2.2h21.4L189.8,95.2z"/>
			<path fill="#FFFFFF" d="M187.8,100.7l0.5-2.2h-20.6c0.3,0.5,0.5,1.4,0.8,2.2H187.8z"/>
			<path fill="#FFFFFF" d="M187.6,102.4h-18.4c0.3,0.8,0.3,1.4,0.3,2.2h17.3L187.6,102.4z"/>
			<path fill="#FFFFFF" d="M169.2,111.4h9.6l-3-2.2h-6.3C169.5,110.1,169.2,110.6,169.2,111.4z"/>
			<path fill="#FFFFFF" d="M169.7,105.7C169.7,105.9,169.7,105.9,169.7,105.7c0,0.5,0,1.1,0,2.2h4.1l-3-2.2H169.7z"/>
			<path fill="#FFFFFF" d="M190.9,112.2l11.8,16.7v8.2c0.8,0,1.4,0,1.6,0c0.3,0,0.3,0,0.5,0V115h1.4v22.2c0.8,0,1.4-0.3,2.2-0.3
				v-21.7h1.4v21.4c0.8-0.3,1.4-0.5,2.2-0.8v-20.6h1.4V135c0.8-0.5,1.4-1.1,1.9-1.6c0,0,0-0.3,0.3-0.3v-14.5
				c-0.5-1.1-1.1-2.2-1.6-3.3l0,0c-0.3-0.8-0.5-1.4-0.8-2.2h-12.3L198,115l-5.2-1.9L190.9,112.2l20-6.3h-15.6l-0.5-1.6h17.6
				c0-0.8,0.3-1.4,0.3-2.2h-18.7l-0.5-1.4h19.8c0.3-0.8,0.5-1.4,0.8-2.2h-20.9l-0.5-1.4h22c0.3-0.8,0.8-1.4,1.1-2.2h-23.9l-0.5-1.4
				h25.2c0.8-1.1,1.4-1.6,1.4-1.9l0.3-0.3h-27.4v-0.3v0.3v2.2V95v2.2v1.6v2.2v1.4v1.9L190.9,112.2L190.9,112.2L190.9,112.2z
				 M201.3,115h1.4v13.4l-1.4-4.1V115z"/>
			<path fill="#FFFFFF" d="M195.5,139.7c0.5-0.5,1.4-0.8,2.2-1.1v-13.2l-2.2-1.9V139.7z"/>
			<path fill="#FFFFFF" d="M192,144.1c0.3-0.5,0.5-1.1,0.8-1.4v-0.3c0.3-0.5,0.8-1.1,1.4-1.6v-18.4l-2.2-1.6V144.1z"/>
			<path fill="#FFFFFF" d="M188.4,140.5c0.5,0.5,1.4,1.4,1.6,2.2v0.3c0,0,0.3,0.3,0.3,0.5v-23.1l-1.9,1.4V140.5z"/>
			<path fill="#FFFFFF" d="M184.8,138.3c0.8,0.3,1.4,0.5,2.2,1.1v-16.5l-2.2,1.6V138.3z"/>
			<path fill="#FFFFFF" d="M199.1,138c0.8-0.3,1.4-0.3,2.2-0.5v-9.6l-2.2-1.6V138z"/>
			<path fill="#FFFFFF" d="M181.3,137.5c0.5,0,1.4,0.3,2.2,0.5v-12.3l-2.2,1.6V137.5z"/>
			<path fill="#FFFFFF" d="M169.2,134.5V115h1.4v20.3c0.5,0.3,1.4,0.5,2.2,0.8v-21.4h1.4v21.7c0.5,0.3,1.4,0.3,2.2,0.3v-22h1.4v22.5
				c0.3,0,0.5,0,0.8,0s0.5,0,1.1,0v-9.1l-1.4,0.8l12.1-17l0,0l0,0l0,0l0,0l-4.4-6.3h-15.6l20,6.3l-7.4,2.7l-2.7-1.9h-12.1
				c-0.3,0.5-0.5,1.4-0.8,2.2c-0.3,0.5-0.5,1.1-0.8,1.6v15.9C167.5,133.1,168.4,133.9,169.2,134.5z M179.9,115h1.4v6.3l-1.4,4.1V115
				z"/>
			<path fill="#FFFFFF" d="M202.9,111.4h9.9c-0.3-0.8-0.3-1.6-0.3-2.2H206L202.9,111.4z"/>
			<path fill="#FFFFFF" d="M212.3,105.7h-1.4l-3,2.2h4.4c0-0.8,0-1.1,0-1.4S212.3,105.9,212.3,105.7z"/>
			<path fill="#FFFFFF" d="M156.6,65.3c3.8,2.2,8.8,1.9,10.7,1.6c0.8-0.3,1.9-0.5,3-1.4l0.3-0.3c0,0,0,0,0.3,0
				c1.6-1.4,2.5-3.6,2.5-6.3v-0.3c0.3,0,0.3,0.8,0.3,1.6c0,1.1-0.3,2.2-0.8,3.3c0,0.3,0,0.3,0,0.5c0,0.3,0.3,0.8,0.5,1.1
				c0.8,0.8,2.5,1.1,4.1,0.5h0.3c0,0.3-1.1,1.1-2.7,1.1c-0.3,0-0.8,0-1.1,0c1.1,1.6,3.8,2.7,6.6,2.7h0.3c0,0.3-0.8,0.5-1.6,0.5
				c-1.4,0-3-0.3-4.1-0.8c1.4,1.6,3.8,3,7.7,3.6c0,0.5-3,0-3.8-0.3c1.9,7.1,5.8,6.3,5.8,6.9c-1.1,0.3-1.9,1.6-1.1,3.3
				c4.1-1.4,7.1-1.6,8.2-1.6c0.8,0,4.1,0,8.2,1.6c0.5-0.5,0.5-1.4,0.3-1.9c-0.8-1.4-6.3-2.7-11.5-1.4c-0.3,0-0.5,0.3-0.8,0.3l0,0
				c0,0,0,0,0-0.3l0,0l0.8-0.5c2.2-1.1,7.1-1.6,9.6-0.3l0,0c2.2,1.1,4.1-1.6,3.6-3.3c1.6,0,3-0.8,3-2.5c-0.3,0.3-0.5,0.3-0.8,0.5
				l0,0c-0.5,0.5-1.1,0.5-1.1,0.5l0,0l0,0l0,0l0,0c0.3,0,0.5-0.3,0.8-0.3c3-1.6,4.7-5.2,4.1-6.3c-0.3,0.5-1.1,1.1-2.2,1.1
				c-0.5,0-0.8,0-0.8-0.3l0,0c0.3,0,0.8-0.3,1.1-0.5c1.1-0.8,2.2-2.2,2.5-3.3c-1.9-1.9-2.5-4.1-3.6-6.9c-0.5-1.1-1.4-2.2-2.7-2.2
				h-0.5c-0.3,0-0.3,0-0.5,0l0,0c1.4-1.1,3,0,4.1,0.5c0.3-2.7,1.1-3.3,1.1-3.3l0,0c-1.9,5.5,1.9,10.7,4.7,12.3
				c3.8,2.2,10.7,2.5,15.4-1.6l0,0c-0.8,0.3-1.6,0.3-2.5,0.3s-1.6-0.3-1.6-0.3s0,0,0.3,0c0.5,0,1.1,0,1.6,0
				c6.6-1.6,6.9-9.9,5.8-10.4l0,0c-0.3,0.5-0.3,1.1-0.5,1.4c-0.3,0.8-0.8,1.4-1.1,1.4v-0.3c1.4-2.5,1.4-4.7,0.5-7.1
				c-0.5-1.4-1.4-2.7-2.5-3.6c-3.3-2.5-10.2-2.7-13.7,0c-1.4-1.4-2.7-2.2-4.7-3c-0.5,2.2-2.7,4.9-4.7,6.3c-0.3,0.3-1.6,1.1-1.9,1.1
				c0,0-0.5,0,0-0.5c3.6-2.2,5.2-4.9,5.5-8.2l0,0c0-1.6-0.5-4.9-2.5-7.1c-3.3-3.6-12.1-4.1-15.9-0.5c-1.1,1.1-1.6,2.5-2.2,4.1
				c0.5-1.1,1.4-2.5,3.3-3c1.6-0.5,5.2-0.3,5.8,1.9c-3-3-8.5-0.8-9.3,4.4l0,0c0,0.3-0.3,0.3-0.3,0.3l0,0c-0.3,0-0.3,0-0.3-2.5
				c0-1.4,0.5-3.3,1.1-4.7c-6.9-1.1-14.8,2.2-14.5,12.1c0,1.4,0.5,2.7,1.9,4.1c0.3,0.3,0,0.3,0,0.3c-0.3,0-1.1-0.5-1.6-1.1
				c-0.5-0.8-1.4-2.2-1.6-3.3c-4.4-1.4-7.1-1.4-9.6-1.1s-5.8,2.5-6.9,3.8c-0.5,0.5-1.1,1.6-1.6,2.5c-0.8,1.6-1.4,3.6-1.1,6
				C151.9,60.4,153.8,63.7,156.6,65.3z M223.2,44.7c1.6,0.5,2.7,1.6,3.6,3.6c0.8,1.6,0.5,3.3,0,4.4l0,0l0,0c0.3-1.1,0-2.7-0.5-3.8
				c-0.3-0.8-1.1-1.9-2.2-2.2c0.5,0.8,1.1,1.6,1.4,2.5c0.3,0.8,0.3,1.4,0.5,1.9c0,1.9-0.8,4.1-1.9,4.9l0,0l0,0
				c1.1-2.5,1.1-4.4,0.3-6.3c0-0.3-0.3-0.3-0.3-0.5c-0.8-1.4-1.9-2.7-3.8-2.7c0.8,0.5,1.6,1.6,2.2,2.7c1.1,2.5,0.8,5.2-0.5,6.3l0,0
				l0,0c0-0.3,0-0.8,0-1.1c0-0.8,0-1.6,0-2.5c-1.1-4.4-4.7-6-7.1-3.3C214.2,48,216.9,42.8,223.2,44.7z M196.9,75.7
				c-0.5-0.3-0.5-1.4-0.5-1.9c0.3-1.4,1.9-2.2,2.7-2.7C199.1,70.8,199.1,73.3,196.9,75.7z M196.3,71.6c-0.8-1.4,1.4-3.3,1.9-4.7
				C201,66.4,197.4,71.4,196.3,71.6z M203.5,37.3c0.3,2.2-1.1,3-1.4,2.7v-0.3c0.5-1.4,0.3-3.8-0.8-5.2c-0.8-1.1-2.2-1.6-2.5-1.6
				C198.5,32.9,202.7,33.8,203.5,37.3z M197.4,59.3c1.9,0.8-1.1,4.7-1.1,5.5c0.5-0.3,1.9-1.9,2.7-1.4c1.1,0.8-2.2,4.9-2.7,5.2
				C191.7,62.8,197.2,60.9,197.4,59.3z M194.4,68.9c0.3,2.7,0.8,6.3-0.5,8.5c-0.8-0.3-0.3-1.4-0.3-1.9c0-3,0-6-0.8-8.5
				c-0.3-1.4-1.4-5.2-4.1-10.4C190,57.6,193.9,63.9,194.4,68.9z M176.3,55.2c1.9,3.3,7.1,7.4,13.7,9.1c2.2,0.5,3.3,7.7,1.4,11.3
				c-1.9,0-2.2-1.4-2.7-3c0.8,0.8,2.2,1.6,2.2,0c-0.8-0.5-5.5-1.9-4.1-3.8c0.8-1.1,3.3,3.3,3.8,1.9c0.5-3-8.8-3.8-8.5-6.3
				c0-1.4,7.4,3.6,8.2,3.3c0-1.6-10.7-6-14-11.8C176.3,55.4,176.3,55.2,176.3,55.2L176.3,55.2z M159.8,63.4c2.5-0.5,4.7-1.9,4.1-4.4
				c-0.3-0.5-0.8-1.1-1.6-1.4c-1.4,0-2.2,0.8-3,1.9c0.3-2.2,1.6-3.6,3.8-3.3c1.1,0,2.7,1.1,3,2.5C166.7,62.3,163.4,63.7,159.8,63.4z
				 M160.1,47.2c3-1.1,6,0,7.7,1.6c4.9,4.9,2.2,11.8,0.8,12.1c1.1-2.7,1.6-7.1-3-8.2c-3.6-0.8-6.6,1.6-8.2,3.3
				c1.1-3.3,4.7-5.5,9.1-4.7c-1.1-2.7-4.4-3.8-8.5-1.6c-1.1,0.5-1.6,1.1-2.5,1.6C156.6,49.4,158.2,47.8,160.1,47.2z"/>
			<path fill="#FFFFFF" d="M178.8,174.8c0,0-2.7-0.8-6.6,1.6c0,0-3,2.2-3.8,2.2c0,0,0.8-3.6,1.4-7.4c-0.5,0-1.1,0-1.6-0.3
				c-0.5,3.6-1.4,7.7-2.7,8l-2.2,0.5c0-0.3-0.3-0.5-0.3-0.8c-0.3-0.5-1.1-1.1-2.2-0.8c0,0,0,0-0.3,0c-0.8,0.3-1.6,1.1-1.6,1.9
				c-0.5,0-4.1,0.5-5.8-0.8c0,0,3.6-1.1,3.8-2.5c0,0,1.1-1.9-2.5-3.8c0,0-2.5-1.4-3.3,0c0,0-0.3,0.8,0.8,1.6c0,0,1.1,1.4-1.1,1.1
				c0,0-1.6-0.3-2.2-0.8c0,0,0.5-4.4,1.4-7.4c-0.8-0.3-1.6-0.5-2.7-0.8c-0.3,1.1-0.8,1.9-1.1,3c0,0-0.3,2.5-1.1,3.3
				c0,0-3.3-2.7-1.9-7.4c-1.1-0.3-2.2-0.5-3-1.1c0,2.2,0.5,6,3.3,11.3c0,0-2.7,3.6-5.5,1.6c0,0-3.8-2.5-1.4-4.9c0,0,1.6-1.4,2.5,0.3
				c-0.8,0-1.6,0.8-1.6,1.6s0.8,1.6,1.6,1.6c0.8,0,1.6-0.8,1.6-1.6c0-0.5,0-2.5-1.4-3.6c0,0-1.4-1.4-3.8-1.1c0,0,2.2-3,2.5-5.2
				c0,0,0-0.3,0.3-0.8c-0.5-0.3-1.4-0.5-1.9-0.8c-0.3,2.5-0.8,6.9-4.1,5.5c0,0,2.2-3.6,3.6-5.8c-1.4-0.5-2.7-1.1-3.8-1.6
				c0,0-0.3,0-0.3-0.3c0.3,1.1,0.5,3.6-0.8,4.9c0,0-1.6,1.6-4.4-0.5c0,0,3.8-3,4.9-4.4c-0.8-0.3-1.9-0.5-3-0.5h-1.1
				c0,0-0.3,0-0.3,0.3c0,0-2.5,1.9-4.1,2.5c0,0-0.5,0.3-1.1-0.3c0,0-3-3.6-0.8-7.4c0,0,1.4-3.3,4.4-2.7c0,0,0.8,0,1.4,1.1
				c0,0-2.7,0-2.5,2.2c0,0,0,2.2,2.7,1.9c0,0,3.6-0.3,2.7-4.7c0,0-0.5-2.7-2.7-2.7c0,0,1.1-1.4,0.3-1.9c0,0-0.8-0.8-2.7,0.5
				c0,0-0.5,0.8-2.7,0.5c0,0-1.6-0.5-2.5,0.5c0,0-0.3,0.3-0.3,1.9c0,0,0.3,0.5-0.8,2.5c0,0-0.5,1.1-0.5,3c-0.8-0.5-1.6-1.1-2.5-1.1
				c-1.1-1.1-1.4-6.9-2.5-9.6c-0.3-0.5,0.5-3.6,0.5-6.6c8.8-1.9,11.8-8.5,12.9-11.3c1.4-4.7-0.5-9.6-0.5-11c0-0.3,0.3-0.3,0.3,0
				c0.3,0.8,0.8,1.4,0.8,2.2c4.1,0.3,7.1-0.3,9.1-1.1h0.3c0.3,0,0.3,0,0.5-0.3c0.3-0.3,0.8-0.3,1.1-0.5c0,0,0.3,0,0.3-0.3
				c6-3,8.8-8.2,10.4-11c-1.1,0.5-3.8-0.3-4.7-1.4c2.2,0.3,3.8,1.1,6,1.1c3.3,0,5.5-1.9,9.1-1.4c0,0.3,0.5,1.6,2.7,2.7
				c0,2.2,0.3,3.8,0.8,5.5c0.3,0.5,0.3,0.5,0.3,0.5s-2.7,2.2-1.9,3.8c0.3,0.5,0.3,0.8,0.5,1.4h-0.3c-0.3-0.3-0.8,0.5-1.4,1.4
				c-0.3,0.5-1.6,3.6-0.5,3.6c0.3,0,0.5,0,0.5,0c-0.5,3-0.5,7.1,1.9,10.7l0,0c0.3,0.3,4.1,6.6,14.5,6.6h0.3c1.1,0,10.2,0.3,13.4,6.3
				c0.3,0.3,0.8,1.4,1.6,1.4c0.8,0,1.6-1.1,1.6-1.4c3.3-6,12.6-6.3,13.4-6.3h0.3c10.4,0,14.5-6.3,14.5-6.6l0,0
				c1.4-1.9,1.9-3.8,2.2-5.8c2.2-1.1,1.9-5.8,1.9-6.6c0.5,0.8,1.9,3,4.4,3.8c-0.3,2.2-0.3,5.8,2.2,6.3c0.8,0,1.4-1.1,1.1-1.9
				c1.9,5.8,0.3,9.3,1.9,9.9c1.9,0,1.9-3.3,2.2-3.6c0.3,0.3,0.8,1.4,0.8,3c0,1.9-0.3,3.6,0.5,3.8c2.7,0.5,1.4-7.4,3.6-6.6
				c-0.5,3.6,0,5.5,1.4,6c0,1.6-0.3,3.3-0.8,3.3c-3.8,0.8-7.4-2.2-10.7-1.4c-0.3-0.3-0.3-0.3-0.3-0.3c-6.3-3.3-10.2-0.8-10.7-1.1
				c-1.6-1.6-2.5,0.8-3,0.5c-3-1.9-4.9,1.4-5.8,1.4s-2.2-1.6-3.6,1.9c-0.5,1.6-4.4,2.2-4.7,2.5c-1.4,0.3-1.9-0.8-1.9-0.8
				c0-0.5-0.3-0.8-0.5-1.1c-0.3-0.3-0.3-0.5-0.5-0.8c-0.5-0.5-1.1-0.5-1.4-0.5c-1.1,0-1.9,1.1-1.9,2.2c0,0.5,0.3,0.8,0.5,1.4
				c0,0,0.5-0.3,0.8-0.3c0.8,0,1.4,0.5,1.4,1.4l0,0c0,1.6-2.5,3.3-2.5,3.3c-1.4,1.4-3.3-0.5-3.3-0.5c-1.1-0.8-1.6-0.8-1.6-0.8
				c-1.1,0-1.6,1.1-1.6,1.1s-0.5-1.1-1.6-1.1c0,0-0.8,0-1.6,0.8c0,0-1.9,1.9-3.3,0.5c0,0-2.5-1.6-2.5-3.3l0,0c0-0.8,0.5-1.4,1.4-1.4
				c0.5,0,0.8,0.5,0.8,0.3c0.3-0.3,0.5-0.8,0.5-1.4c0-1.1-0.8-1.9-1.9-2.2c-0.5,0-1.1,0-1.4,0.5c-0.3,0.3-0.3,0.5-0.5,0.8
				c-0.3,0.3-0.3,0.5-0.5,1.1c0,0-0.3,1.1-1.9,0.8c-0.3,0-3.8-0.8-4.7-2.5c-1.6-3.6-3-1.9-3.6-1.9c-0.8-0.3-2.7-3.3-6-1.4
				c-0.5,0.3-1.1-2.2-3-0.5c-0.3,0.3-3.3-1.6-8.5,0.3c-0.3-0.5-1.9-0.8-2.2-1.1c-1.1-0.3-1.9-1.1-2.5-1.4c-1.4-0.8-3.6-0.3-5.2-0.5
				c-0.5,0-1.4-0.5-1.9-0.8c-2.2-1.4-4.4-2.7-5.8-4.7c-0.3-0.3-0.8-1.1-0.8-1.1c-0.5-0.8-0.8-1.4-1.4-2.7c-0.8-2.5,0.3-5.2,0.8-8
				c0.3-1.1,0.3-1.6,0.3-2.5c-1.9,0.5-4.7,0.5-7.7-0.3c0.8,2.7,0.8,5.8,0.5,8c1.4,0.8,1.9,2.5,2.2,3.3c0.3,1.4-0.5,2.7,0.3,3.6
				c1.1,1.6,3.6,3,5.2,4.1c0.5,0.3,7.7,5.8,8.5,6c1.1,0.3,1.6-0.5,2.5-0.3c0.3,0,0.5,0.3,0.8,0.5c0,0,0.5,0.5,1.4,1.1
				c-2.2,1.4-4.7,3-6.9,3.8c0,0-3.3,1.6-1.6,1.6c0,0,2.2,0,2.5,0.3c0,0-0.8,0.3-2.5,1.1c3.3,1.1,6.6,2.2,10.2,3.3
				c2.2-2.2,4.9-4.4,7.7-5.5c0,0,3.8,0.3,5.2-2.7c0.3-0.8,2.2,1.6,5.5-0.3c0.3-0.3,0.8,0.8,1.9,1.1c0.3,0-1.4,0.3-1.1,1.9
				c0,0.3-2.7,0-3.8,1.6c-0.3,0.5-6.3,0.3-11.8,4.9c1.1,0.3,1.9,0.5,3,0.8c1.9-1.4,4.1-2.2,6.6-2.2c0,0,3.3,0.3,4.7,4.1
				c2.2,0.3,4.1,0.5,6.3,0.8l0,0c0.5-0.3,3.6-1.6,2.2-3.6c0,0-0.8-0.8-1.9,0.3c0,0-0.8,0.8-1.1-0.3c0,0,0-0.5-0.3-1.1
				c0,0-0.5-0.8,0.5-0.5c0,0,1.1,0.3,1.9,0.3c1.1,0,1.9-0.8,1.9-1.9c0-1.1-0.8-2.2-1.9-2.2c0,0-0.3,0-0.3,0.3c0.3,0,0.3,0.3,0.3,0.5
				s-0.3,0.8-0.8,0.8c-1.1-0.3-0.8-2.7,0.8-2.7c0,0,1.4,0,2.7,1.6c0,0,2.7,4.1,5.5,4.9c0.3,0-0.5,1.4,1.1,1.9c0.3,0,0,1.4,1.6,1.1
				c0,0,0.3,0.5,0.8,1.4c1.4,0,3,0,4.4,0s3,0,4.4,0c0.3-0.8,0.8-1.4,0.8-1.4c1.6,0,1.4-1.1,1.6-1.1c1.6-0.5,1.1-1.9,1.1-1.9
				c2.5-0.8,5.2-4.9,5.2-4.9c1.1-1.4,2.7-1.6,2.7-1.6c1.6,0,1.9,2.5,0.8,2.7c-0.3,0-0.8-0.3-0.8-0.8c0-0.3,0-0.5,0.3-0.5l-0.3-0.3
				c-1.1,0-1.9,1.1-1.9,2.2c0,1.1,0.8,1.9,1.9,1.9s2.2-0.3,2.2-0.3c1.1-0.3,0.5,0.5,0.5,0.5c-0.3,0.5-0.3,1.1-0.3,1.1
				c-0.3,1.1-1.1,0.3-1.1,0.3c-1.1-1.1-1.9-0.3-1.9-0.3c-1.4,1.6,1.6,3.3,2.2,3.6l0,0c2.2-0.3,4.4-0.5,6.3-0.8
				c1.4-4.1,4.7-4.1,4.7-4.1c2.5-0.3,4.7,0.8,6.6,2.2c1.1-0.3,2.2-0.5,3-0.8c-5.5-4.7-11.5-4.4-11.8-4.9c-0.8-1.6-3.8-1.4-3.8-1.6
				c0.3-1.6-1.4-1.9-1.1-1.9c1.1-0.3,1.6-1.1,1.9-1.1c3.6,1.9,5.2-0.5,5.5,0.3c1.4,3,5.2,2.7,5.2,2.7c2.7,1.1,5.5,3.3,7.7,5.5
				c3.3-0.8,6.3-1.9,9.3-3l0,0c0-0.3,0-0.3-0.3-0.5c0,0,0,0,0-0.3l0,0c0-0.3-0.3-0.5-0.5-0.8l0,0c-0.8-1.4-1.9-2.7-2.5-3l0,0l0,0
				c0,0,2.2-3.6,3.8-1.1c0,0.3,0,1.1-1.6,1.1c0,0,1.6,2.7,2.2,4.4l0,0c0.8-0.3,1.1-0.5,1.4-0.5h0.3c-0.8-1.6-2.2-2.7-1.9-3.3
				c0.3-0.3,1.6,0.5,2.2-0.5c0.3-0.3,0.3-1.6,0.5-3c0.8,0.5,1.9,0.5,2.2,0.5c2.5,0,3.3-3.6,2.5-4.7c0.3-0.3,1.6-1.4,1.9-1.1
				c0.8,1.6,4.7,3.6,4.1-0.3c0.5,1.9,1.1,3.8,3.3,3.8c1.6-0.3,0.5-3,1.1-3c0.5,0.8,1.1,3.8,3.3,3c0.8-0.3,1.4-0.8,1.4-1.9
				c0-3-8.2-18.1-9.1-24.7c0,0-0.3,0-0.3-0.3c-0.8-0.5-0.8-1.6-0.8-2.7c0,0,0,0,0-0.3c-1.1-0.3-2.5-1.1-2.7-3.8
				c0-2.5,1.1-3.8,1.4-3.8v0.3c-0.5,1.9-1.1,4.4,0.3,5.8c0.3,0.3,0.8,0.5,1.4,0.5c0.5-0.8,1.1-1.4,1.1-1.4s0,0,0,0.3
				c-0.8,1.4-0.8,3.3,0,4.1c0.3,0.3,1.1,0.5,1.6,0.5c2.2-0.8,3.6-5.2,4.1-6.6c1.6,0.3-2.5,9.3,0.5,11.3c1.4,0,1.9-1.6,2.5-3
				c1.1,2.7-3.3,8.2-0.3,9.3c1.9,0.5,2.5-4.4,2.7-3.8c0.5,7.4-3.3,11-0.8,12.1c2.2,1.1,2.7-4.9,2.7-4.4c0,8-4.1,10.2-2.5,11.5
				c1.9,0.8,3.3-4.1,3.3-2.7c-0.3,7.1-3.8,9.1-2.2,11.3c1.9,2.5,5.2-4.7,5.5-3.3c0.3,1.6-3.8,9.9-1.6,10.4c1.9,0.5,2.7-2.2,2.7-3
				c6-20.3,6.3-40.3,6-46.9c-0.5-10.4-1.4-19.8-3.8-28.3c-1.6-5.2-4.4-15.9-11.5-17.6c-3.3-0.8-5.8,2.5-5.8,5.2
				c0,2.5,1.6,3.6,1.1,5.8c-0.8,1.6-1.6,3.3-2.2,4.9s1.1,2.5,0.5,4.1c-2.2-0.3-3.3,1.4-6.3,0.8c-2.7,1.1-5.8,0.5-5.8,0.5s0,0,0.3,0
				c3,0,6-1.1,6.6-2.5c0.5-2.2,0.3-5.2-1.4-6.3c-1.6,0.3-2.7,1.9-8.8,1.6c-5.2-0.3-6.3,0.5-7.1,3.8c0.5-0.3,0.5-0.8,0.5-1.4
				c0.3-1.6,1.9-2.7,3.8-3c0.5-0.8,0.5-1.4,0.5-2.2c-0.8,0-1.4,0-2.5,0c-2.5,0.3-5.8,1.6-6.6,4.1c0,0.3-0.3,0.8-0.3,1.4
				c0,0.3,0,0.8,0.3,1.1c0,0.3,0.3,0.5,0.3,0.8c0.8,1.6,2.7,2.7,6.9,2.7h0.3c0,0.3-0.8,0.3-1.9,0.3c0,0-3.8,0-5.5-1.9
				c0,0.3-0.3,0.3-0.3,0.3c-1.1,1.1-3,2.2-4.7,2.2c-1.9,0-3.8-1.1-4.7-2.2c-2.5-3.3,0.8-9.1,0.5-11.3c-0.3-5.8-8-3-10.7-1.6
				c-3.3,1.9-6,4.7-8.5,7.4c-1.1,1.4-2.5,3.3-3.3,4.9c1.1,0.5,3.8,1.6,6.3,1.9l0,0c0,0,0.3,0,0.8,0c1.1,0,3.3-0.3,4.9-1.6
				c0.3,0,0.8-0.5,1.9-0.5c0.8,0,1.4,0.3,1.9,0.8c0.3,0.3,5.2,4.1,6.9,5.2c0.3,0.3,0.8,0.5,0.8,1.4c0,0.3,0,1.1-0.5,1.6
				c-0.3,0.5-2.7,3.3-4.4,7.1c-0.3,0.5-0.5,1.1-0.5,1.6c-0.5,2.2-1.1,5.5,1.9,6.6c0,0,3.3,0.8,3-4.4c0,0,0.5,3.3,3,3.3
				c1.1,0,1.9-1.1,1.9-3.3l0,0c-0.3-2.2-0.3-4.7,0.3-7.4v-0.3c0,0,0,0.3,0.3,1.4c0.3,1.4-0.8,13.7,9.3,22.2c0,0-4.4-2.2-7.1-7.4
				c-1.6,1.1-4.1,3.3-3,8c0.5,1.6,1.6,3,2.5,3.6c0,0,0,0,0,0.3s-0.5,0.5-1.4-0.3l0,0c0-0.3-0.3-0.3-0.5-0.5
				c-0.3-0.5-0.5-1.1-0.8-1.6c-1.1-1.1-2.2-2.2-3.3-3.3l0,0c-0.8-1.6-0.3-6.6-5.2-6.6c0,0-0.3,0-0.5,0l0,0c-0.3,0-0.5,0-0.8,0
				c0,0,0,0-0.3,0c-1.4-4.4-0.8-7.1-0.8-7.4c1.1-6.3,5.5-11.5,6-12.1c0.3-0.3,0.3-0.5,0.3-0.8c0-0.3-0.3-0.3-0.3-0.5l0,0
				c-1.6-1.1-6.6-4.9-7.1-5.5l0,0c-0.3-0.3-0.8-0.5-1.1-0.5c-0.5,0-1.1,0.3-1.1,0.3c-1.9,1.6-4.4,1.9-5.8,1.9c-0.5,0-0.8,0-0.8,0
				l0,0c-2.7,0-6.3-1.6-6.9-2.2c-4.7-1.9-8.5-2.2-9.1-2.2c-0.5,0-4.4,0-9.1,2.2c-0.5,0.3-4.1,1.9-6.9,2.2l0,0c0,0-0.5,0-0.8,0
				c-1.4,0-3.8-0.3-5.8-1.9l0,0c0,0-0.5-0.3-1.1-0.3c-0.5,0-0.8,0.3-1.1,0.5l0,0c-0.5,0.5-5.5,4.4-7.1,5.5l0,0c0,0-0.3,0.3-0.3,0.5
				c0,0.3,0.3,0.5,0.3,0.8c0.5,0.5,4.9,5.8,6,12.1c0,0.3,0.3,1.1,0,2.7c-0.3-1.4-0.8-2.5-1.1-3.3c0-0.8-0.3-1.4-0.8-1.9l0,0
				c-0.5-1.1-1.6-1.9-2.7-2.5c-0.8-0.5-1.9-0.5-2.7-1.1c-1.4-0.8-2.7-1.9-3.6-3.6c0-3.3-1.6-5.5-1.6-5.5c0.5-0.3,2.5,1.1,2.5,4.7
				c2.2-2.5,3.6-6,4.4-9.9c1.6-2.5,6.6-1.4,8.5-1.1c0.5,0,1.4,0.3,1.6,0.5c0.5,0.3,0.5,1.1,1.4,1.4c0.8,0.3,1.6,0,2.5,0
				c0.3,0.3,0.5,0.8,0.8,1.4c0.3,0,0.5,0,0.5,0l0,0l0,0c2.7,0,6.3-1.9,6.6-1.9l0,0c0,0,0.3,0,0.3-0.3c-1.1-1.4-2.7-1.6-4.1-1.9
				c-1.9-0.3-2.7-1.9-4.7-2.2c-0.5,0-1.9-0.3-2.5-0.3c-3.8,0.5-6.6-0.8-10.2-1.1c-3.3-0.3-3.6,2.2-4.7,4.1c-0.5,0.8-1.1,1.6-1.6,2.2
				c-1.4,0.8-2.5,0.8-3.6,1.9c0,0,0,0-0.3,0c-0.3-1.1-0.8-3-1.6-4.4l0,0c0-0.3-0.3-0.3-0.3-0.5c-1.9-3-3.8-5.2-8-6
				c-0.8-0.3-0.8-0.3-1.4-0.8c-0.5-0.5-0.3-1.1,0-1.1c1.1-0.5,3.3-0.5,4.7-1.1c3.3-1.6,2.2-4.4,0.8-4.7c-1.6-0.3-4.7-1.1-5.2-1.4
				c-0.8-0.5-1.4-1.9-2.5-2.5c-1.1-0.3-1.9-0.3-2.7-0.3s-1.4,0.8-1.9,0.5c0.8-1.1,1.9-1.6,3.8-1.6c-1.4-0.3-0.8-2.7-2.2-3.3
				c-0.5,0-1.4,0.3-2.5,0.5c0-0.8-0.5-3.3-1.9-4.1c-1.1-0.5-1.4,0.3-1.4,1.1c0,0.5,1.6,1.4,1.9,3.8c-0.3,0.3-0.5,0.3-0.8,0.5
				c-0.3-1.1-0.8-2.7-1.6-3.3c-1.1-0.5-1.4,0.3-1.4,1.1c0,0.5,1.4,1.1,1.9,3.3c-0.3,0.3-0.8,0.5-1.1,0.8c-2.2-0.5-2.7-2.2-3.3-2.2
				s-1.6,0.3-1.1,1.4c0.5,1.1,2.2,1.9,3.3,2.2c-0.3,0.3-0.5,0.5-0.5,0.8c-2.5-0.5-3-2.2-3.6-2.5c-0.5,0-1.6,0.3-1.1,1.4
				c0.8,1.4,3.3,2.2,3.8,2.2c-0.5,0.8-0.5,1.4-0.5,1.9c-1.9-0.3-5.5,0.8-4.9,3.3c0.5,0.5,3-1.4,5.2-0.3c1.4,2.2,3.8,2.2,4.1,2.7
				c0.8,0.5,0.8,1.6,1.4,2.7c0.5,1.9,1.9,3.6,3,5.2c1.1,1.9,2.5,3.8,3.8,5.5c0.3,0.5,0.3,0.8,0.3,1.6c-1.4,2.2-5.8,4.9-7.7,6.9
				c-1.9,1.6-18.9,14.8-21.1,20.3c-0.5,1.4-0.8,3-0.5,4.7c-1.1,0.5-3,0.3-3.3-0.3c-1.1-1.4,1.1-2.7,0.5-4.4
				c-0.3-0.8-1.1-0.8-1.9-0.8c-1.4,0.5-1.6,3-0.8,4.7c0.3,0.5,0.8,1.1,0.3,1.4c-0.5,0.3-1.1-0.3-1.1-1.4c-0.3,0.3-0.8,0.8-0.5,1.4
				c0.3,1.4,1.9,1.4,2.5,1.6c0,0.5-0.8,0.8-1.4,0.3c-0.8,1.4,0,1.9,0.3,1.9c1.1,0.3,2.2-0.8,2.7-0.8c0.3,0.8-0.3,0.8-1.4,1.1
				c1.6,2.2,3.3-1.4,5.2-1.1c0.5,0,6,5.2,4.9,9.1c0,0.3-0.3,0.8-0.3,0.8c-1.1,1.4-3.3,2.7-4.7,4.1c-2.7,1.9,2.7,13.2,2.2,18.9
				c-0.3,2.2,1.9,1.9,3.3,5.5c-1.4,0-2.7,0.3-3.6,1.4c0,0,0,0-0.3,0.3l0,0c-0.3,0.3-0.3,0.8-0.3,1.4c0,1.6,1.4,2.7,2.7,2.7
				c1.6,0,2.7-1.4,2.7-2.7c0-0.3,0-0.3,0-0.5c0.5,0,1.4,0,2.2,0.5l2.5,1.4c0,0-8.8,7.4-23.1,3c0,0-6.6-1.9-4.7-7.7
				c0,0,0.3-1.1,1.1-1.6c0.3,0.8,0.5,1.4,1.4,1.9c0.5,0.3,1.1,0.5,1.9,0.5c1.9,0,3.3-1.4,3.3-3.3c0-0.8-0.3-1.6-0.8-2.2
				c0-0.3-0.3-0.3-0.5-0.3l0,0l0,0c-1.1-0.5-2.5-1.1-4.7-0.5c0,0-6.3,1.9-3.8,8.5c0,0-4.1-0.8-5.8,1.1c0,0-0.5,0.5-0.5,1.6l0,0l0,0
				c0,0.3,0.3,0.8,0.5,1.4c0.5,0.5,1.1,1.1,1.9,1.1s1.4-0.3,1.9-0.8l0,0c0.3-0.3,0.5-0.5,1.4,0.3c0,0,5.8,6.6,14.5,5.8
				c0,0,0.3,4.4,3.3,5.2c0,0,0.3,0,0.5,0c0.8,0,1.4-0.5,1.4-1.4c0-0.8-0.5-1.4-1.4-1.4c0,0,0,0-0.3,0c0-0.3-0.3-1.4-0.3-2.5
				c0,0,9.3-1.4,15.6-6.3c0,0,4.4,1.4,7.1,1.4c0,0,0.3,1.1-1.6,1.1c0,0-2.5,0-2.5,0.8c0,0-0.3,0.8,1.9,0.8c0,0-0.3,0.8,1.4,1.9
				c0,0,1.1,0.5,0.5,1.1c0,0-1.9,1.1-1.4,2.2c0,0,0.5,1.4,3,1.1c0,0,0.8,0,0.3,0.8c0,0-1.4,1.4,0.8,2.5c0,0,1.6,0.8,2.7-0.8
				c0,0,0.3-0.8,1.4-0.3c0,0,5.5,2.5,8.5-1.6c0,0,0.3-0.5,1.1,0.5c0,0,2.7,3.6,10.7,3.8c0.5,0.8,1.4,1.6,2.5,1.6
				c1.4,0,2.7-1.1,3-2.5c0.8,0,4.4-0.3,8-2.7c0,0,1.4-0.8,2.7-1.4c0,2.2,1.9,4.1,4.1,4.1s4.1-1.9,4.1-4.1
				C182.1,177,180.7,175.4,178.8,174.8z M152.7,144.1C152.7,144.1,152.7,144.4,152.7,144.1c0,0.3-0.3,0.3-0.3,0.3l0,0
				c-0.3,0-0.5,0-0.8,0.3c-0.5,0-1.1,0-1.6-0.3c0,0.3,0.3,0.5,0.5,0.8l0,0l0,0c0.3,0,0.3,0.3,0.3,0.3c0.3,0,0.5,0.3,0.5,0.3
				c0,0.5-0.8,0.8-1.4,0.8c-0.8,0-1.6-1.1-1.9-1.6c0,0-0.3,0-0.3-0.3c0,0,0,0-0.3-0.3c-0.8-0.5-1.9-0.5-3-0.5c0.3-2.2,5.8-0.5,6-0.5
				C151.3,143.8,152.2,143.8,152.7,144.1L152.7,144.1z M238.6,149L238.6,149v0.3c-1.1,0-3.3-1.6-3.3-1.6c-0.3-0.3-1.4-0.8-2.2-0.5
				l0,0l0,0c-0.8,0.3-1.4,1.4-1.9,1.9c0-0.3,0-0.3-0.3-0.5l0,0c0-0.3,0-0.3,0-0.5c0,0,0,0,0-0.3v-0.3c0,0,0,0,0-0.3
				c0-0.3,0-0.3,0.3-0.5c0,0,0-0.3,0.3-0.3c0,0,0,0,0.3-0.3l0.3-0.3l0,0c0.5-0.3,1.1-0.3,1.6-0.3l0,0c0.8,0,1.6,0.3,2.5,0.8
				c0.8,0.8,2.2,0.8,3.3,0.8C239.4,147.9,238.9,148.5,238.6,149z M261.9,78.8c0.5-1.6,2.7-3.8,2.7-4.7c0-1.1-1.1-2.2-1.4-3.6
				c-0.3-2.2,1.4-4.4,3.6-3.8c1.4,0.3,2.5,1.4,3.3,2.5c0.3,0.3,0.8,0.8,1.1,1.1c2.5,3,4.7,8.8,5.8,13.2c3.6,13.2,5.2,34,1.1,56.8
				c-0.3,1.9-1.4,6.9-1.6,6.6c4.1-37.9,1.9-47.2,1.1-46.9c-0.5,0.3-1.4,4.7-3.3,3.3c-1.9-1.4,4.7-9.6,1.9-14.3
				c-0.5-0.8-1.1,1.1-2.2,0.8c-2.7-0.8,1.6-8.2,0.8-8.8c-0.5-0.5-2.7-1.1-2.7-3.6c0-1.1,0.8-2.2-0.3-3.3c-0.8-0.8-0.5,0.8-1.4,0.3
				c-1.4-1.4,0-3-0.8-4.1c-0.3-0.3-1.4,0.8-1.9,0.3c-0.8-0.5,0.5-1.9-0.5-2.2c-1.1,0.3-3,1.6-2.7,3.6c0.3,1.1,1.4,1.6,1.4,3
				c0,1.1-1.4,2.2-1.6,2.7c-1.9,4.1,1.1,4.9,0.8,6.3c-0.3,0.8-1.4,1.1-2.2,0.8C261.9,84,261.7,80.4,261.9,78.8z M256.4,87
				c0.5,0,1.4-0.3,1.9-0.3c0.5-0.3,1.1-0.8,1.6-0.8c0.3,0.3-0.3,0.5-0.5,0.8c-0.5,0.5-2.2,1.4-3,1.6c-1.9,0.5-3.8-0.3-4.7-1.4
				C253.4,86.2,254.5,87.3,256.4,87z M221.9,72.7h-0.3c-1.6-0.8-4.7-0.8-6.9,0.3c-1.6,0.8-2.7,2.5-3,2.5c-0.3,0,2.7-4.4,7.4-4.7
				C221.9,71.1,222.1,72.5,221.9,72.7z M232.3,85.9c-0.5,1.1-1.6,2.5-3,2.7c-2.7,0.5-5.5-1.6-5.5-1.9c-0.3-0.3,2.2,1.1,4.4,0.8
				C229.8,87.5,231.2,86.4,232.3,85.9C232.3,85.6,232.3,85.6,232.3,85.9z M236.4,128.4c2.2,0.8,5.2,0.3,6.9-0.8h0.3
				c0.3,0.3,0,1.9-2.7,2.5c-4.7,0.3-8-4.1-7.7-3.8C233.4,126.2,234.8,127.6,236.4,128.4z M224.1,119.7
				C224.3,119.7,224.3,119.7,224.1,119.7C224.3,119.9,224.3,119.9,224.1,119.7c0.3,0.3,0.3,0.3,0.3,0.5c0,0,0,0,0,0.3v0.3
				c0,0,0,0,0,0.3c0,0.5,0,1.1,0,1.6v0.3l0,0c0,0.3,0,0.8,0,1.1c0,0.8,0,2.2-0.5,2.7l-0.3,0.3l-0.3,0.3l0,0H223l0,0h-0.3l0,0h-0.3
				l0,0h-0.3c0,0,0,0-0.3,0c0,0-0.3,0-0.3-0.3c0,0,0,0-0.3,0l-0.3-0.3l0,0c0,0-0.5-1.1,0.3-1.1c0,0.3,0.3,0.3,0.3,0.3l0,0h0.3l0,0
				h0.3l0,0c0,0,0,0,0.3,0l0,0c0,0,0,0,0-0.3l0,0v-0.3c0,0,0,0,0-0.3v-0.3v-0.3v-0.3c0-1.6,0-3.8,0.5-4.7c0,0,0,0,0-0.3l0,0
				c0,0,0,0,0.3,0l0,0l0,0C224.1,119.4,224.1,119.7,224.1,119.7L224.1,119.7z M218.6,113.1L218.6,113.1c0.5-0.3,0.8-0.5,1.4-0.5
				c0.3,0,0.5,0,0.8,0l0,0c0.3,0,0.5,0,0.8,0c0.3,0,0.8,1.1,1.1,2.2l0,0c0,0.3,0.5,1.9,1.1,2.2c0.5,0.5,0.3,1.6-1.1,1.4l0,0
				c-1.4-0.3-3-2.5-2.2-4.4c-0.3,0-0.5,0-1.1,0l0,0c-0.3,0-0.3,0-0.5,0.3c0,0,0,0-0.3,0c0,0-0.3,0-0.3,0.3H218
				c-0.3,0.3-0.5,0.8-0.8,0.8C217.5,114.2,218,113.6,218.6,113.1z M165.3,117.7c3.8-6.6,3.3-11,3.3-11.8c0-7.1-4.4-12.6-4.9-13.2
				c-0.5-0.5-0.5-1.1-0.5-1.4c0-0.5,0.5-1.1,0.8-1.1c1.1-0.8,3.3-1.9,4.1-2.7l0.5-0.3h0.3c0.3,0,0.5,0.3,0.8,0.5
				c0.8,0.8,2.5,1.9,5.5,1.9c0.5,0,1.1,0,1.6,0c1.6-0.3,4.1-1.4,4.1-1.4c0.8-0.5,1.6-0.8,2.2-1.1h0.3c4.1-1.6,7.4-1.9,8.5-1.9
				c0.8,0,4.4,0,8.5,1.9h0.3c0.5,0.3,1.4,0.5,2.2,1.1c0,0,2.5,1.4,4.1,1.4c0.5,0,1.1,0,1.6,0c3,0,4.7-1.4,5.5-1.9
				c0.5-0.3,0.5-0.5,0.8-0.5c0,0,0.3,0,0.3,0.3c0,0,0.3,0,0.5,0.3c1.1,0.5,3,1.9,4.1,2.7c0,0,0.5,0.3,0.5,1.1c0,0.3,0,0.8-0.5,1.4
				s-4.9,6-4.9,13.2c0,0.8-0.5,5.5,3.3,11.8c0.3,0.3,4.1,7.7-0.3,14.3c-0.3,0.5-3.8,6-12.9,6c-0.8,0-8.2,0.3-10.7,4.9
				c0,0,0,0-0.3,0.3c-0.3,0.5-1.1,1.9-1.6,2.7c0,0.3-0.3,0.3-0.5,0.3s-0.3,0-0.5-0.3c-0.3-0.8-1.4-2.2-1.6-2.7l-0.3-0.3
				c-2.5-4.7-9.9-4.9-10.7-4.9c-9.1,0-12.6-5.5-12.9-6C161.2,125.4,165.3,118,165.3,117.7z M163.1,109.8c0.5,0.5,0.8,1.6,1.1,3v0.3
				c0,0.3,0,0.3,0,0.5v0.3v0.3v0.3c0,0.3,0,0.3,0,0.5v0.3c0,0.3,0,0.3,0,0.5v0.3c0,0.3,0,0.5,0,0.5v0.3v0.3v0.3v0.3
				c0,0.3,0,0.3-0.3,0.5v0.3v0.3v0.3c0,0.3-0.3,0.3-0.3,0.5v0.3c0,0,0,0.3-0.3,0.3c0,0,0,0-0.3,0.3c0,0.3-0.3,0.3-0.3,0.5l0,0
				l-0.3,0.3c0,0,0,0-0.3,0c-0.3,0-0.3,0.3-0.5,0.3l0,0c-0.3,0-0.3,0-0.5,0.3l0,0c-0.3,0-0.3,0-0.5,0v-0.3c0-0.5,0.5-1.1,0.8-1.6
				c0.3-0.5,0.3-1.1,0.5-1.4c0.5,0,1.1,0.3,1.4-0.5c-0.8-0.8-1.1-2.2,0.3-3.3C164.5,113.9,162.9,110.1,163.1,109.8z M162.6,104.3
				c-0.8,0.3-0.8-3-4.7-2.2c-2.2,0.8-3.6,0.3-4.9-0.3C158.2,98.5,162.9,101.8,162.6,104.3z M129.9,72.2c-0.8-1.9,2.2-4.7,3-4.9
				c1.9-0.5,3.3,0.5,5.2,0.8c1.1,0.3,2.5,0,3.3,0c2.2,0.3,1.6,1.6,1.1,1.9c-1.6,0.5-2.7-0.8-4.4-1.1c-1.1,0-2.2,0.5-3.3,0.3
				c-1.1,0-1.6-0.8-2.5,0c0,0-1.4,1.1-1.1,2.2C131.6,72.2,130.5,72.5,129.9,72.2z M132.1,71.6c2.5,0.8,2.5-2.2,3.3-1.4
				C136.2,71.6,133.8,73.8,132.1,71.6z M136.5,78.5c3.8,0.3,7.4,0.3,9.9,1.6c0,0,0.3,0,0.3,0.3c0.8,0.5,2.7,1.9,3.6,4.9
				c-3.3-1.9-4.4-2.5-6.9-3.3C140.6,81,137.6,80.4,136.5,78.5z M117.9,161.1L117.9,161.1c-0.5-0.3-1.1-0.5-1.4-0.8
				c-0.5,0.5,0.3,1.4,0.8,1.9c0,0.3-0.3,0.3-0.5,0.3l0,0c-0.3,0-0.5,0-0.8,0l0,0l0,0c-0.8-0.3-0.8-1.6-0.8-2.2
				c0-0.5-0.3-1.6-1.4-2.2c1.6-1.1,4.1,1.6,4.4,1.6l0,0l0,0l0,0c0.3,0.3,0.8,0.5,1.1,0.8l0.3,0.3C119,161.4,118.4,161.4,117.9,161.1
				z"/>
		</g>
	</g>
	<g>
		<path fill="#FFFFFF" d="M386.3,77.7c-0.3-6.9-0.3-13.7-0.5-20.6h-0.3c-0.5,3.3-1.4,6-1.9,8l-3.3,12.6h-6.9l-3.8-16.2
			c-0.3-1.4-0.8-3-1.1-4.7h-0.3l-0.5,20.6h-4.7l1.1-26.1h8.5c0.5,1.9,3,12.9,4.7,21.1h0.3c1.6-8.2,4.7-19.2,5.5-21.1h8l1.1,26.1
			h-5.8V77.7z"/>
		<path fill="#FFFFFF" d="M398.1,77.7V62.6l-2.2-0.5v-3.3h7.1v18.7h-4.9V77.7z M397.8,51.3h4.9V56h-4.9V51.3z"/>
		<path fill="#FFFFFF" d="M418.9,77.7v-11c0-2.7-1.1-4.1-3.3-4.1c-1.4,0-2.5,0.5-3.3,1.1v14h-4.9V59h3.6l0.8,2.2
			c1.1-1.4,3-2.5,6-2.5c4.7,0,6.6,2.7,6.6,7.4v11.5H418.9z"/>
		<path fill="#FFFFFF" d="M429.6,77.7V62.6l-2.2-0.5v-3.3h7.1v18.7h-4.9V77.7z M429.6,51.3h4.9V56h-4.9V51.3z"/>
		<path fill="#FFFFFF" d="M443.3,63.7c0,3,8.2,1.9,8.2,8.2c0,3.3-2.5,6-7.4,6c-2.2,0-4.4-0.5-5.5-1.4l1.1-3.6
			c0.8,0.5,2.7,1.4,4.4,1.4c1.6,0,2.7-0.8,2.7-1.9c0-3.3-8-2.2-8-8.5c0-2.7,2.2-5.2,7.1-5.2c1.9,0,4.1,0.3,5.2,0.8l-0.8,3.6
			c-1.4-0.5-2.7-1.1-4.4-1.1C444.2,62,443.3,62.8,443.3,63.7z"/>
		<path fill="#FFFFFF" d="M462.6,77.9c-3.3,0-5.8-1.9-5.8-6.6v-9.1H454v-3.6h2.7v-3.3l4.9-1.6v4.9h4.9v3.6h-4.9v9.1
			c0,1.4,0.5,2.2,1.9,2.2c1.1,0,2.2-0.5,3-0.8l0.8,3.6C466.4,77.1,464.5,77.9,462.6,77.9z"/>
		<path fill="#FFFFFF" d="M474.1,69.4c0,3,1.6,4.7,4.9,4.7c1.9,0,3.8-0.8,5.5-1.6l0.8,3.6c-1.6,0.8-4.1,1.9-7.1,1.9
			c-5.8,0-9.3-3.6-9.3-9.9c0-5.8,2.7-9.6,8.8-9.6c5.8,0,8,4.1,8,9.1v2.2h-11.5V69.4z M477.6,62c-2.5,0-3.6,2.2-3.6,4.4h6.9
			C480.9,64.2,480.1,62,477.6,62z"/>
		<path fill="#FFFFFF" d="M500.1,63.1c-0.5-0.3-1.4-0.3-2.5-0.3c-1.4,0-2.5,0.5-3.3,1.4v13.7h-4.9V59.3h3.6c0.3,0.8,0.3,1.6,0.5,2.5
			h0.3c0.5-1.4,2.2-2.7,4.4-2.7c1.1,0,1.6,0.3,2.2,0.3C500.1,60.1,500.1,61.7,500.1,63.1z"/>
		<path fill="#FFFFFF" d="M504.5,77.7V62.6l-2.2-0.5v-3.3h7.1v18.7h-4.9V77.7z M504.5,51.3h4.9V56h-4.9V51.3z"/>
		<path fill="#FFFFFF" d="M530.9,68.1c0,6.3-3.3,9.9-8.8,9.9c-5.5,0-8.8-3.3-8.8-9.9c0-5.5,3-9.6,8.8-9.6
			C527.9,58.5,530.9,62.6,530.9,68.1z M525.7,68.1c0-4.4-1.4-6-3.6-6c-2.5,0-3.6,1.6-3.6,6s1.1,6,3.6,6
			C524.6,74.4,525.7,72.7,525.7,68.1z"/>
		<path fill="#FFFFFF" d="M555,60.4c-0.3-1.1-0.5-1.9-0.5-3.6V51h4.9v26.3h-4.1l-0.5-1.9c-0.8,1.1-2.5,2.5-4.9,2.5
			c-4.1,0-7.7-3-7.7-9.9c0-6.3,3.6-9.9,8-9.9C552.6,58.5,554.2,59.3,555,60.4z M554.8,63.1c-0.8-0.5-1.9-0.8-3.3-0.8
			c-2.5,0-3.8,1.6-3.8,6c0,4.4,1.4,6,3.8,6c1.4,0,2.5-0.5,3.6-1.6v-9.6H554.8z"/>
		<path fill="#FFFFFF" d="M568.5,69.4c0,3,1.6,4.7,4.9,4.7c1.9,0,3.8-0.8,5.5-1.6l0.8,3.6c-1.6,0.8-4.1,1.9-7.1,1.9
			c-5.8,0-9.3-3.6-9.3-9.9c0-5.8,2.7-9.6,8.8-9.6c5.8,0,8,4.1,8,9.1v2.2h-11.5V69.4z M572.1,62c-2.5,0-3.6,2.2-3.6,4.4h6.9
			C575.3,64.2,574.5,62,572.1,62z"/>
		<path fill="#FFFFFF" d="M373.6,94.1v21.7h-5.2V94.1h-6.3V90h17.8v4.1H373.6z"/>
		<path fill="#FFFFFF" d="M390.1,101.3c-0.5-0.3-1.4-0.3-2.5-0.3c-1.4,0-2.5,0.5-3.3,1.4v13.7h-4.9V97.4h3.6
			c0.3,0.8,0.3,1.6,0.5,2.5h0.3c0.5-1.4,2.2-2.7,4.4-2.7c1.1,0,1.6,0.3,2.2,0.3C390.1,98.2,390.1,99.9,390.1,101.3z"/>
		<path fill="#FFFFFF" d="M404.6,115.8l-0.8-2.2c-0.8,1.4-2.7,2.7-5.5,2.7c-3.8,0-6.3-2.5-6.3-6s2.5-5.5,7.1-5.5h3.8v-1.1
			c0-2.5-1.4-3.3-3.3-3.3c-2.2,0-4.1,0.5-5.8,1.4l-1.4-3.6c1.9-0.8,4.4-1.6,7.4-1.6c5.2,0,7.7,2.5,7.7,7.1v11.8h-3V115.8z
			 M403.3,107.6h-3c-2.2,0-3,1.1-3,2.5c0,1.6,0.8,2.7,2.7,2.7c1.1,0,2.5-0.5,3.3-1.4V107.6z"/>
		<path fill="#FFFFFF" d="M423.9,115.8v-11.3c0-2.7-1.1-4.1-3.3-4.1c-1.4,0-2.5,0.5-3.3,1.1v14h-4.9V96.9h3.6l0.8,2.2
			c1.1-1.4,3-2.5,6-2.5c4.7,0,6.6,2.7,6.6,7.4v11.5h-5.5V115.8z"/>
		<path fill="#FFFFFF" d="M437.3,102.1c0,3,8.2,1.9,8.2,8.2c0,3.3-2.5,6-7.4,6c-2.2,0-4.4-0.5-5.8-1.4l1.1-3.6
			c0.8,0.5,2.7,1.4,4.4,1.4c1.6,0,2.7-0.8,2.7-2.2c0-3.3-8-2.2-8-8.5c0-2.7,2.2-5.2,7.1-5.2c1.9,0,3.8,0.3,5.2,0.8l-0.8,3.6
			c-1.4-0.5-2.7-1.1-4.4-1.1C438.1,100.2,437.3,101,437.3,102.1z"/>
		<path fill="#FFFFFF" d="M454.3,117.5v5.5h-5.2V96.9h4.4l0.3,1.9c0.8-1.1,2.7-2.5,4.9-2.5c4.4,0,7.4,3,7.4,9.6
			c0,6.6-3.8,9.9-8.2,9.9c-2.2,0-3.3-0.8-4.7-2.2C453.8,113.9,454.3,116.1,454.3,117.5z M454.3,110.6c0.8,1.1,1.9,1.9,3.3,1.9
			c2.2,0,3.8-1.6,3.8-6c0-4.4-1.4-6-3.6-6c-1.4,0-2.5,0.8-3.3,1.6v8.5H454.3z"/>
		<path fill="#FFFFFF" d="M487,106.5c0,6.3-3.3,9.9-8.8,9.9s-8.8-3.3-8.8-9.9c0-5.5,3-9.6,8.8-9.6C484,96.6,487,101,487,106.5z
			 M482,106.5c0-4.4-1.4-6-3.6-6s-3.6,1.6-3.6,6c0,4.4,1.1,6,3.6,6C480.7,112.5,482,110.9,482,106.5z"/>
		<path fill="#FFFFFF" d="M501.5,101.3c-0.5-0.3-1.4-0.3-2.2-0.3c-1.4,0-2.5,0.5-3.3,1.4v13.7h-4.9V97.4h3.6
			c0.3,0.8,0.3,1.6,0.5,2.5l0,0c0.5-1.4,2.2-2.7,4.4-2.7c1.1,0,1.6,0.3,2.2,0.3C501.5,98.2,501.5,99.9,501.5,101.3z"/>
		<path fill="#FFFFFF" d="M511.4,116.1c-3.3,0-5.8-1.9-5.8-6.6v-8.8h-2.7v-3.6h2.7v-3.3l4.9-1.6v4.9h4.9v3.6h-4.9v9.1
			c0,1.4,0.5,2.2,1.9,2.2c1.1,0,2.2-0.5,3-0.8l0.8,3.6C515.2,115.5,513.3,116.1,511.4,116.1z"/>
		<path fill="#FFFFFF" d="M522.9,107.9c0,3,1.6,4.7,4.7,4.7c1.9,0,3.8-0.8,5.5-1.6l0.8,3.6c-1.6,0.8-4.1,1.9-7.1,1.9
			c-5.8,0-9.3-3.6-9.3-9.9c0-5.8,2.7-9.6,8.8-9.6c5.8,0,8,4.1,8,9.1v2.2h-11.3V107.9z M526.5,100.4c-2.5,0-3.6,2.2-3.6,4.4h6.9
			C529.8,102.4,529.2,100.4,526.5,100.4z"/>
		<path fill="#FFFFFF" d="M542.7,102.1c0,3,8.2,1.9,8.2,8.2c0,3.3-2.5,6-7.4,6c-2.2,0-4.4-0.5-5.5-1.4l1.1-3.6
			c0.8,0.5,2.7,1.4,4.4,1.4s2.7-0.8,2.7-2.2c0-3.3-8-2.2-8-8.5c0-2.7,2.2-5.2,7.1-5.2c1.9,0,3.8,0.3,5.2,0.8l-0.8,3.6
			c-1.4-0.5-2.7-1.1-4.4-1.1C543.5,100.2,542.7,101,542.7,102.1z"/>
		<path fill="#FFFFFF" d="M570.7,115.3l-3.3,0.5l-5.8-18.9h5.5l4.1,15.6l0,0c0.8-2.7,3.3-12.9,4.1-15.6h4.9l-5.8,19.2
			c-1.6,5.5-4.4,7.4-8.2,7.4c-2.2,0-4.4-1.1-5.2-1.9l1.6-3.3h0.5c0,0.3,1.6,1.4,3.6,1.4c1.9,0,3.3-1.4,4.1-3.8L570.7,115.3z"/>
		<path fill="#FFFFFF" d="M373.6,132.3V154h-5.2v-21.7h-6.3v-4.1h17.8v4.1H373.6z"/>
		<path fill="#FFFFFF" d="M383.2,146c0,3,1.6,4.7,4.9,4.7c1.9,0,3.8-0.8,5.5-1.6l0.8,3.6c-1.6,0.8-4.1,1.9-7.1,1.9
			c-5.8,0-9.3-3.6-9.3-9.9c0-5.8,2.7-9.6,8.8-9.6c5.8,0,8,4.1,8,8.8v2.2L383.2,146L383.2,146z M386.8,138.6c-2.5,0-3.6,2.2-3.6,4.4
			h6.9C390.1,140.5,389.6,138.6,386.8,138.6z"/>
		<path fill="#FFFFFF" d="M398.9,149v-21.4h4.9v21.1c0,1.6,0.8,1.9,3,1.9v3.6c0,0-1.4,0.3-2.7,0.3
			C400.3,154.2,398.9,152.3,398.9,149z"/>
		<path fill="#FFFFFF" d="M414.3,146c0,3,1.6,4.7,4.9,4.7c1.9,0,3.8-0.8,5.5-1.6l0.8,3.6c-1.6,0.8-4.1,1.9-7.1,1.9
			c-5.8,0-9.3-3.6-9.3-9.9c0-5.8,2.7-9.6,8.8-9.6c5.8,0,8,4.1,8,8.8v2.2L414.3,146L414.3,146z M417.8,138.6c-2.5,0-3.6,2.2-3.6,4.4
			h6.9C421.1,140.5,420.3,138.6,417.8,138.6z"/>
		<path fill="#FFFFFF" d="M444.4,152.6c-1.1,0.5-3.6,1.6-6.3,1.6c-5.5,0-9.1-3.3-9.1-9.9c0-6,3.3-9.9,8.8-9.9c2.5,0,4.7,0.5,6.3,1.6
			l-1.4,3.3c-1.4-0.8-3-1.1-4.7-1.1c-2.5,0-4.1,1.6-4.1,6c0,4.1,1.6,6,4.4,6c1.9,0,3.8-0.8,5.2-1.4L444.4,152.6z"/>
		<path fill="#FFFFFF" d="M464.7,144.6c0,6.3-3.3,9.9-8.8,9.9s-8.8-3.3-8.8-9.9c0-5.5,3-9.6,8.8-9.6
			C461.5,134.7,464.7,139.1,464.7,144.6z M459.5,144.6c0-4.4-1.4-6-3.6-6c-2.5,0-3.6,1.6-3.6,6c0,4.4,1.1,6,3.6,6
			C458.4,150.7,459.5,149,459.5,144.6z"/>
		<path fill="#FFFFFF" d="M485.1,142.4V154h-4.9v-11c0-2.7-1.1-4.1-3.3-4.1c-1.4,0-2.2,0.5-3.3,1.1v14h-5.2v-18.7h3.3l0.8,2.2
			c1.1-1.4,3-2.5,5.5-2.5c3,0,4.9,0.8,5.8,2.7c1.1-1.4,3-2.7,5.8-2.7c5.5,0,6.9,2.7,6.9,7.4V154h-5.2v-11c0-2.7-1.1-4.1-3.6-4.1
			c-1.1,0-2.2,0.5-3.3,1.1C485.1,140.5,485.1,141.3,485.1,142.4z"/>
		<path fill="#FFFFFF" d="M513.6,154l-0.8-2.2c-0.8,1.1-2.7,2.7-5.8,2.7c-4.7,0-6.9-2.7-6.9-7.7v-11.3h4.9v11.5
			c0,2.7,1.1,3.8,3.3,3.8c1.4,0,2.5-0.5,3.3-1.1v-14.3h4.9v18.7h-3V154z"/>
		<path fill="#FFFFFF" d="M532.8,154v-11c0-2.7-1.1-4.1-3.3-4.1c-1.4,0-2.5,0.5-3.3,1.1v14h-4.9v-18.7h3.6l0.8,2.2
			c1.1-1.4,3-2.5,6-2.5c4.7,0,6.6,2.7,6.6,7.4V154H532.8z"/>
		<path fill="#FFFFFF" d="M543.2,154v-15.1l-2.2-0.5V135h7.1v18.7h-4.9V154z M543.2,127.6h4.9v4.7h-4.9V127.6z"/>
		<path fill="#FFFFFF" d="M567.7,152.6c-1.1,0.5-3.6,1.6-6.3,1.6c-5.5,0-9.1-3.3-9.1-9.9c0-6,3.3-9.9,8.8-9.9c2.5,0,4.7,0.5,6.3,1.6
			l-1.4,3.3c-1.4-0.8-3-1.1-4.7-1.1c-2.5,0-4.1,1.6-4.1,6c0,4.1,1.6,6,4.4,6c1.9,0,3.8-0.8,5.2-1.4L567.7,152.6z"/>
		<path fill="#FFFFFF" d="M582.8,154l-0.8-2.2c-0.8,1.4-2.7,2.7-5.5,2.7c-3.8,0-6.3-2.5-6.3-6c0-3.6,2.5-5.5,7.1-5.5h3.8v-1.1
			c0-2.5-1.4-3.3-3.3-3.3c-2.2,0-4.1,0.5-5.8,1.4l-1.4-3.6c1.9-0.8,4.4-1.6,7.4-1.6c5.2,0,7.7,2.5,7.7,7.1v11.8h-3V154z
			 M581.4,145.7h-3.3c-2.2,0-3,1.1-3,2.5c0,1.6,0.8,2.7,2.7,2.7c1.1,0,2.5-0.5,3.3-1.4v-3.8H581.4z"/>
		<path fill="#FFFFFF" d="M605.3,152.6c-1.1,0.5-3.6,1.6-6.3,1.6c-5.5,0-9.1-3.3-9.1-9.9c0-6,3.3-9.9,8.8-9.9c2.5,0,4.7,0.5,6.3,1.6
			l-1.4,3.3c-1.4-0.8-3-1.1-4.7-1.1c-2.5,0-4.1,1.6-4.1,6c0,4.1,1.6,6,4.4,6c1.9,0,3.8-0.8,4.9-1.4L605.3,152.6z"/>
		<path fill="#FFFFFF" d="M610.2,154v-15.1l-2.2-0.5V135h7.1v18.7h-4.9V154z M609.9,127.6h4.9v4.7h-4.9V127.6z"/>
		<path fill="#FFFFFF" d="M636.3,144.6c0,6.3-3.3,9.9-8.8,9.9c-5.8,0-8.8-3.3-8.8-9.9c0-5.5,3-9.6,8.8-9.6
			C633.3,134.7,636.3,139.1,636.3,144.6z M631.3,144.6c0-4.4-1.4-6-3.6-6s-3.6,1.6-3.6,6c0,4.4,1.1,6,3.6,6
			C630,150.7,631.3,149,631.3,144.6z"/>
		<path fill="#FFFFFF" d="M651.6,154v-11c0-2.7-1.1-4.1-3.3-4.1c-1.4,0-2.5,0.5-3.3,1.1v14h-4.9v-18.7h3.6l0.8,2.2
			c1.1-1.4,3-2.5,6-2.5c4.7,0,6.6,2.7,6.6,7.4V154H651.6z"/>
		<path fill="#FFFFFF" d="M665.1,146c0,3,1.6,4.7,4.9,4.7c1.9,0,3.8-0.8,5.5-1.6l1.1,3.6c-1.6,0.8-4.1,1.9-7.1,1.9
			c-5.8,0-9.3-3.6-9.3-9.9c0-5.8,2.7-9.6,8.8-9.6c5.8,0,8,4.1,8,8.8v2.2L665.1,146L665.1,146z M668.7,138.6c-2.5,0-3.6,2.2-3.6,4.4
			h6.9C671.9,140.5,671.1,138.6,668.7,138.6z"/>
		<path fill="#FFFFFF" d="M684.8,140.2c0,3,8.2,1.9,8.2,8.2c0,3.3-2.5,6-7.4,6c-2.2,0-4.4-0.5-5.5-1.4l1.1-3.6
			c0.8,0.5,2.7,1.4,4.4,1.4s2.7-0.8,2.7-2.2c0-3.3-8-2.2-8-8.5c0-2.7,2.2-5.2,7.1-5.2c1.9,0,3.8,0.3,5.2,0.8l-0.5,3.6
			c-1.4-0.5-2.7-0.8-4.4-0.8C685.7,138.3,684.8,139.1,684.8,140.2z"/>
	</g>
	<g>
		<path fill="#FFFFFF" d="M386.5,579.3c-4.1,1.9-7.4,2.7-11.3,2.7c-9.1,0-13.2-6.3-13.2-15.9c0-9.1,4.4-15.4,14-15.4
			c4.7,0,7.4,1.1,9.9,2.7l-2.5,4.4c-1.6-1.1-4.1-1.9-7.4-1.9c-5.5,0-7.7,4.1-7.7,10.2c0,7.1,2.5,11,7.7,11c1.9,0,3.8-0.3,5.2-1.1
			v-5.5h-4.1l-0.3-4.4h9.9v13.2H386.5z"/>
		<path fill="#FFFFFF" d="M410.7,570.6c0,7.4-3.8,11.3-10.2,11.3c-6.6,0-10.2-3.8-10.2-11.3c0-6.3,3.6-11.3,10.2-11.3
			C407.1,559.3,410.7,564.2,410.7,570.6z M404.9,570.6c0-5.2-1.6-7.1-4.4-7.1s-4.1,1.9-4.1,7.1c0,4.9,1.4,7.1,4.1,7.1
			S404.9,575.8,404.9,570.6z"/>
		<path fill="#FFFFFF" d="M420.6,562.1c1.1-1.4,3.3-2.7,5.8-2.7c5.2,0,8.8,3.6,8.8,11.3c0,7.4-4.4,11.3-9.6,11.3c-3,0-4.9-1.1-6.3-3
			l-1.1,2.7h-3v-30.7h5.8v7.7L420.6,562.1z M420.8,575.5c0.8,1.1,2.5,2.2,3.8,2.2c2.5,0,4.4-1.9,4.4-7.1s-1.6-7.1-4.4-7.1
			c-1.4,0-3,0.8-4.1,1.6v10.4H420.8z"/>
		<path fill="#FFFFFF" d="M441.1,581.5V564l-2.5-0.5v-3.6h8.2v21.7H441.1z M441.1,550.8h5.8v5.2h-5.8V550.8z"/>
		<path fill="#FFFFFF" d="M457.3,572.2c0,3.6,1.9,5.5,5.5,5.5c2.2,0,4.4-0.8,6.3-1.9l1.1,4.1c-1.9,1.1-4.7,2.2-8.2,2.2
			c-6.9,0-10.7-4.1-10.7-11.3c0-6.6,3.3-11.3,10.2-11.3c6.6,0,9.3,4.9,9.3,10.4v2.5h-13.4V572.2z M461.2,563.7c-3,0-4.1,2.7-4.1,5.2
			h8C465.3,565.9,464.2,563.7,461.2,563.7z"/>
		<path fill="#FFFFFF" d="M487.5,564.5c-0.8-0.3-1.6-0.3-2.7-0.3c-1.6,0-3,0.5-3.8,1.4v15.9h-5.8v-21.7h4.1c0.3,1.1,0.5,1.9,0.5,3
			h0.3c0.5-1.6,2.7-3.3,5.2-3.3c1.1,0,1.9,0.3,2.5,0.3C487.5,561.2,487.5,562.9,487.5,564.5z"/>
		<path fill="#FFFFFF" d="M504.5,581.5v-12.9c0-3.3-1.4-4.9-3.8-4.9c-1.6,0-2.7,0.5-3.8,1.4v16.5h-5.8v-21.7h4.1l0.8,2.5
			c1.4-1.4,3.6-3,6.9-3c5.5,0,7.7,3.3,7.7,8.8v13.4H504.5L504.5,581.5z"/>
		<path fill="#FFFFFF" d="M534.7,570.6c0,7.4-3.8,11.3-10.2,11.3c-6.6,0-10.2-3.8-10.2-11.3c0-6.3,3.6-11.3,10.2-11.3
			C531.2,559.3,534.7,564.2,534.7,570.6z M528.7,570.6c0-5.2-1.6-7.1-4.4-7.1s-4.1,1.9-4.1,7.1c0,4.9,1.4,7.1,4.1,7.1
			C527.3,577.7,528.7,575.8,528.7,570.6z"/>
		<path fill="#FFFFFF" d="M563,561.5c-0.3-1.4-0.5-2.5-0.5-4.1v-6.6h5.8v30.7h-4.7l-0.5-2.5c-0.8,1.4-3,2.7-5.8,2.7
			c-4.9,0-8.8-3.6-8.8-11.3c0-7.1,4.1-11.3,9.3-11.3C560,559.3,561.6,560.1,563,561.5z M562.4,564.8c-0.8-0.5-2.2-1.1-3.8-1.1
			c-2.7,0-4.4,1.9-4.4,6.9c0,5.2,1.6,7.1,4.4,7.1c1.4,0,3-0.8,4.1-1.9v-11H562.4z"/>
		<path fill="#FFFFFF" d="M578.4,572.2c0,3.6,1.9,5.5,5.5,5.5c2.2,0,4.4-0.8,6.3-1.9l1.1,4.1c-1.9,1.1-4.7,2.2-8.2,2.2
			c-6.9,0-10.7-4.1-10.7-11.3c0-6.6,3.3-11.3,10.2-11.3c6.6,0,9.3,4.9,9.3,10.4v2.5h-13.4V572.2z M582.5,563.7c-3,0-4.1,2.7-4.1,5.2
			h8C586.3,565.9,585.5,563.7,582.5,563.7z"/>
		<path fill="#FFFFFF" d="M618.4,582.1c-8.5,0-12.9-5.8-12.9-15.6c0-9.3,4.4-15.4,12.9-15.4c4.1,0,7.7,0.8,10.2,2.5l-2.2,4.7
			c-1.6-1.1-4.4-1.9-7.4-1.9c-4.9,0-7.4,3.6-7.4,10.2c0,6.9,2.5,10.7,7.4,10.7c3,0,5.8-1.4,8-2.7l1.9,4.7
			C625.8,580.7,622.3,582.1,618.4,582.1z"/>
		<path fill="#FFFFFF" d="M632.7,581.5v-30.7h5.8v8c0,1.4-0.5,3-0.5,3.3c1.4-1.4,3-3,6-3c6.3,0,8,3.3,8,8.8v13.4h-6v-12.9
			c0-0.5,0-1.1-0.3-1.4c-0.3-2.5-1.4-3.6-3.6-3.6c-1.6,0-2.7,0.5-3.8,1.4v16.5h-5.5V581.5z"/>
		<path fill="#FFFFFF" d="M658.8,581.5V564l-2.5-0.5v-3.6h8.2v21.7H658.8z M658.5,550.8h5.8v5.2h-5.8V550.8z"/>
		<path fill="#FFFFFF" d="M669.8,575.8v-25h5.8v24.4c0,1.9,1.1,2.2,3.6,2.2v4.1c0,0-1.6,0.3-3.3,0.3
			C671.4,582.1,669.8,579.6,669.8,575.8z"/>
		<path fill="#FFFFFF" d="M687.9,572.2c0,3.6,1.9,5.5,5.5,5.5c2.2,0,4.4-0.8,6.3-1.9l1.1,4.1c-1.9,1.1-4.7,2.2-8.2,2.2
			c-6.9,0-10.7-4.1-10.7-11.3c0-6.6,3.3-11.3,10.2-11.3c6.6,0,9.3,4.9,9.3,10.4v2.5h-13.4V572.2z M691.7,563.7c-3,0-4.1,2.7-4.1,5.2
			h8C695.6,565.9,694.7,563.7,691.7,563.7z"/>
	</g>
</g>
</svg>
